<?xml version="1.0" encoding="UTF-8" standalone="no"?>
<!-- Created with Inkscape (http://www.inkscape.org/) -->

<svg
   xmlns:dc="http://purl.org/dc/elements/1.1/"
   xmlns:cc="http://creativecommons.org/ns#"
   xmlns:rdf="http://www.w3.org/1999/02/22-rdf-syntax-ns#"
   xmlns:svg="http://www.w3.org/2000/svg"
   xmlns="http://www.w3.org/2000/svg"
   xmlns:xlink="http://www.w3.org/1999/xlink"
   xmlns:sodipodi="http://sodipodi.sourceforge.net/DTD/sodipodi-0.dtd"
   xmlns:inkscape="http://www.inkscape.org/namespaces/inkscape"
   version="1.0"
   width="1280"
   height="1024"
   id="svg1"
   inkscape:version="0.48.4 r9939"
   sodipodi:docname="brynux-background.svg"
   inkscape:export-filename="/home/user/Downloads/livecd/usr/share/backgrounds/spos/default/standard/spos-background-bitmap.png"
   inkscape:export-xdpi="90"
   inkscape:export-ydpi="90">
  <sodipodi:namedview
     pagecolor="#ce5c00"
     bordercolor="#666666"
     borderopacity="1"
     objecttolerance="10"
     gridtolerance="10"
     guidetolerance="10"
     inkscape:pageopacity="1"
     inkscape:pageshadow="2"
     inkscape:window-width="1920"
     inkscape:window-height="1048"
     id="namedview180"
     showgrid="false"
     inkscape:zoom="0.82910156"
     inkscape:cx="642.41225"
     inkscape:cy="630.96599"
     inkscape:window-x="1920"
     inkscape:window-y="0"
     inkscape:window-maximized="1"
     inkscape:current-layer="svg1"
     fit-margin-top="0"
     fit-margin-left="0"
     fit-margin-right="0"
     fit-margin-bottom="0" />
  <defs
     id="defs3">
    <linearGradient
       id="linearGradient3924">
      <stop
         id="stop3926"
         style="stop-color:#ffffff;stop-opacity:0.21014492"
         offset="0" />
      <stop
         id="stop3928"
         style="stop-color:#ffffff;stop-opacity:0"
         offset="1" />
    </linearGradient>
    <linearGradient
       id="linearGradient1823">
      <stop
         id="stop1824"
         style="stop-color:#ffffff;stop-opacity:0"
         offset="0" />
      <stop
         id="stop1825"
         style="stop-color:#ffffff;stop-opacity:0.35211268"
         offset="0.5" />
      <stop
         id="stop1826"
         style="stop-color:#ffffff;stop-opacity:0"
         offset="1" />
    </linearGradient>
    <linearGradient
       id="linearGradient1817">
      <stop
         id="stop1818"
         style="stop-color:#ffffff;stop-opacity:0"
         offset="0" />
      <stop
         id="stop1821"
         style="stop-color:#ffffff;stop-opacity:0.03921569"
         offset="0.5" />
      <stop
         id="stop1822"
         style="stop-color:#ffffff;stop-opacity:0"
         offset="1" />
    </linearGradient>
    <linearGradient
       id="linearGradient1818">
      <stop
         id="stop1819"
         style="stop-color:#ffffff;stop-opacity:1"
         offset="0" />
      <stop
         id="stop1820"
         style="stop-color:#ffffff;stop-opacity:0"
         offset="1" />
    </linearGradient>
    <linearGradient
       id="linearGradient1813">
      <stop
         id="stop1815"
         style="stop-color:#ffffff;stop-opacity:0"
         offset="0" />
      <stop
         id="stop1816"
         style="stop-color:#ffffff;stop-opacity:0.49803922"
         offset="0.5" />
      <stop
         id="stop1817"
         style="stop-color:#ffffff;stop-opacity:0"
         offset="1" />
    </linearGradient>
    <linearGradient
       id="linearGradient1807">
      <stop
         id="stop1808"
         style="stop-color:#ffffff;stop-opacity:0.68544602"
         offset="0" />
      <stop
         id="stop1809"
         style="stop-color:#fefeff;stop-opacity:0"
         offset="1" />
    </linearGradient>
    <linearGradient
       id="linearGradient13017">
      <stop
         id="stop13018"
         style="stop-color:#000000;stop-opacity:1"
         offset="0" />
      <stop
         id="stop13019"
         style="stop-color:#ffffff;stop-opacity:1"
         offset="1" />
    </linearGradient>
    <linearGradient
       id="linearGradient1812">
      <stop
         id="stop1813"
         style="stop-color:#ffffff;stop-opacity:0.05882353"
         offset="0" />
      <stop
         id="stop1814"
         style="stop-color:#ffffff;stop-opacity:0"
         offset="1" />
    </linearGradient>
    <linearGradient
       id="linearGradient4276">
      <stop
         id="stop4277"
         style="stop-color:#ffffff;stop-opacity:0.11764706"
         offset="0" />
      <stop
         id="stop4278"
         style="stop-color:#fefeff;stop-opacity:0"
         offset="1" />
    </linearGradient>
    <linearGradient
       id="linearGradient3030">
      <stop
         id="stop3031"
         style="stop-color:#0e3581;stop-opacity:0"
         offset="0" />
      <stop
         id="stop3032"
         style="stop-color:#1443a0;stop-opacity:1"
         offset="0.5" />
      <stop
         id="stop3033"
         style="stop-color:#0440b6;stop-opacity:0"
         offset="1" />
    </linearGradient>
    <linearGradient
       id="linearGradient2402">
      <stop
         id="stop2403"
         style="stop-color:#01306f;stop-opacity:1"
         offset="0" />
      <stop
         id="stop2404"
         style="stop-color:#03439b;stop-opacity:1"
         offset="0.5" />
      <stop
         id="stop2405"
         style="stop-color:#003680;stop-opacity:1"
         offset="1" />
    </linearGradient>
    <linearGradient
       id="linearGradient9839">
      <stop
         id="stop9840"
         style="stop-color:#000000;stop-opacity:1"
         offset="0" />
      <stop
         id="stop9841"
         style="stop-color:#000000;stop-opacity:0"
         offset="1" />
    </linearGradient>
    <linearGradient
       id="linearGradient4069">
      <stop
         id="stop4070"
         style="stop-color:#ffbe34;stop-opacity:0.68544602"
         offset="0" />
      <stop
         id="stop4071"
         style="stop-color:#ffdc4c;stop-opacity:0"
         offset="1" />
    </linearGradient>
    <linearGradient
       id="linearGradient16912">
      <stop
         id="stop16913"
         style="stop-color:#ffffff;stop-opacity:0.66666669"
         offset="0" />
      <stop
         id="stop16914"
         style="stop-color:#ffffff;stop-opacity:0"
         offset="1" />
    </linearGradient>
    <linearGradient
       id="linearGradient8708">
      <stop
         id="stop8709"
         style="stop-color:#01306f;stop-opacity:1"
         offset="0" />
      <stop
         id="stop12476"
         style="stop-color:#03439b;stop-opacity:1"
         offset="0.5" />
      <stop
         id="stop8710"
         style="stop-color:#003680;stop-opacity:1"
         offset="1" />
    </linearGradient>
    <linearGradient
       id="linearGradient3704">
      <stop
         id="stop3705"
         style="stop-color:#0b1d41;stop-opacity:1"
         offset="0" />
      <stop
         id="stop3706"
         style="stop-color:#000000;stop-opacity:1"
         offset="1" />
    </linearGradient>
    <linearGradient
       id="linearGradient1810">
      <stop
         id="stop1811"
         style="stop-color:#ffffff;stop-opacity:0.39215687"
         offset="0" />
      <stop
         id="stop1812"
         style="stop-color:#fefeff;stop-opacity:0.05490196"
         offset="1" />
    </linearGradient>
    <linearGradient
       id="linearGradient12401">
      <stop
         id="stop12402"
         style="stop-color:#ffffff;stop-opacity:0"
         offset="0" />
      <stop
         id="stop9333"
         style="stop-color:#ffffff;stop-opacity:0.03921569"
         offset="0.5" />
      <stop
         id="stop12403"
         style="stop-color:#ffffff;stop-opacity:0"
         offset="1" />
    </linearGradient>
    <linearGradient
       id="linearGradient11763">
      <stop
         id="stop11764"
         style="stop-color:#000000;stop-opacity:1"
         offset="0" />
      <stop
         id="stop11765"
         style="stop-color:#000000;stop-opacity:0.63380283"
         offset="1" />
    </linearGradient>
    <linearGradient
       id="linearGradient9855">
      <stop
         id="stop9856"
         style="stop-color:#0058ff;stop-opacity:1"
         offset="0" />
      <stop
         id="stop9857"
         style="stop-color:#fdfdfd;stop-opacity:0"
         offset="1" />
    </linearGradient>
    <linearGradient
       id="linearGradient9230">
      <stop
         id="stop9231"
         style="stop-color:#0058ff;stop-opacity:1"
         offset="0" />
      <stop
         id="stop9232"
         style="stop-color:#fdfdfd;stop-opacity:0"
         offset="1" />
    </linearGradient>
    <linearGradient
       id="linearGradient7972">
      <stop
         id="stop7973"
         style="stop-color:#fdfdfd;stop-opacity:0.29411766"
         offset="0" />
      <stop
         id="stop8597"
         style="stop-color:#fdfdfd;stop-opacity:0.35294119"
         offset="0.5" />
      <stop
         id="stop7974"
         style="stop-color:#fdfdfd;stop-opacity:0.09803922"
         offset="1" />
    </linearGradient>
    <linearGradient
       id="linearGradient2353">
      <stop
         id="stop2354"
         style="stop-color:#b3cfff;stop-opacity:1"
         offset="0" />
      <stop
         id="stop2355"
         style="stop-color:#0050dd;stop-opacity:1"
         offset="1" />
    </linearGradient>
    <style
       type="text/css"
       id="style2415" />
    <style
       type="text/css"
       id="style2017" />
    <linearGradient
       x1="585.87195"
       y1="411.427"
       x2="607.1839"
       y2="640.82019"
       id="linearGradient11136"
       xlink:href="#linearGradient7972"
       gradientUnits="userSpaceOnUse"
       gradientTransform="scale(1.263675,0.791343)" />
    <linearGradient
       x1="624.75842"
       y1="1078.1119"
       x2="593.87524"
       y2="751.44543"
       id="linearGradient11762"
       xlink:href="#linearGradient11763"
       gradientUnits="userSpaceOnUse"
       gradientTransform="matrix(1.091599,0,0,0.806927,0,81.69132)" />
    <radialGradient
       cx="905.61401"
       cy="375.39572"
       r="201.9917"
       fx="905.61401"
       fy="375.39572"
       id="radialGradient9346"
       xlink:href="#linearGradient1810"
       gradientUnits="userSpaceOnUse"
       gradientTransform="matrix(0.404153,0,0,0.406072,598.1281,554.3846)" />
    <linearGradient
       x1="68.284729"
       y1="507.98886"
       x2="123.76366"
       y2="612.88391"
       id="linearGradient16915"
       xlink:href="#linearGradient16912"
       gradientUnits="userSpaceOnUse"
       gradientTransform="scale(3.401788,0.293963)" />
    <linearGradient
       x1="102.81779"
       y1="150.29443"
       x2="424.56198"
       y2="722.41736"
       id="linearGradient9842"
       xlink:href="#linearGradient9839"
       gradientUnits="userSpaceOnUse"
       gradientTransform="scale(1.111535,0.899657)" />
    <pattern
       id="pattern1981"
       patternTransform="translate(876.9406,614.1349)"
       height="177.46243"
       width="176.62337"
       patternUnits="userSpaceOnUse">
      <rect
         transform="translate(-876.9406,-614.1349)"
         ry="49.705379"
         rx="49.708714"
         y="614.13489"
         x="876.94055"
         height="177.46243"
         width="176.62337"
         id="rect1982"
         style="opacity:0.45248869;fill:url(#radialGradient9346);fill-opacity:1.0000000;fill-rule:nonzero;stroke:none;stroke-width:1.2500000;stroke-linecap:round;stroke-linejoin:round;stroke-miterlimit:4.0000000;stroke-dashoffset:0.0000000;stroke-opacity:1.0000000" />
    </pattern>
    <linearGradient
       x1="929.92407"
       y1="365.15329"
       x2="1407.9355"
       y2="550.30981"
       id="linearGradient3990"
       xlink:href="#linearGradient12401"
       gradientUnits="userSpaceOnUse"
       gradientTransform="matrix(0.762786,0,0,1.310983,213.6435,0.7500012)" />
    <linearGradient
       x1="929.92407"
       y1="365.15329"
       x2="1407.9355"
       y2="550.30981"
       id="linearGradient3992"
       xlink:href="#linearGradient12401"
       gradientUnits="userSpaceOnUse"
       gradientTransform="matrix(-0.762786,0,0,-1.310983,1833.207,962.5719)" />
    <linearGradient
       x1="548.97797"
       y1="762.54321"
       x2="1061.0055"
       y2="924.93665"
       id="linearGradient3994"
       xlink:href="#linearGradient3030"
       gradientUnits="userSpaceOnUse"
       gradientTransform="matrix(1.1547,0,0,0.866026,1.0449995,0.7500012)" />
    <linearGradient
       x1="1339.2728"
       y1="626.07275"
       x2="618.57043"
       y2="422.78098"
       id="linearGradient3996"
       xlink:href="#linearGradient1812"
       gradientUnits="userSpaceOnUse"
       gradientTransform="matrix(1.065232,0,0,0.938763,1.0450034,0.7500012)" />
    <linearGradient
       x1="1384.5165"
       y1="128.08214"
       x2="2398.271"
       y2="264.82779"
       id="linearGradient3998"
       xlink:href="#linearGradient4276"
       gradientUnits="userSpaceOnUse"
       gradientTransform="matrix(0.541725,0,0,1.845955,1.0449995,0.7500012)" />
    <linearGradient
       x1="44.144588"
       y1="19776.625"
       x2="3.1722441"
       y2="19776.625"
       id="linearGradient4000"
       xlink:href="#linearGradient1823"
       gradientUnits="userSpaceOnUse"
       gradientTransform="matrix(17.94556,0,0,0.03463785,480.2304,75.15953)" />
    <linearGradient
       x1="318.57779"
       y1="-62.640854"
       x2="350.99991"
       y2="820.59406"
       id="linearGradient4002"
       xlink:href="#linearGradient1810"
       gradientUnits="userSpaceOnUse"
       gradientTransform="matrix(1.586615,0,0,0.630273,1.0449995,0.75)"
       spreadMethod="pad" />
    <linearGradient
       id="linearGradient1823-7">
      <stop
         id="stop1824-0"
         style="stop-color:#ffffff;stop-opacity:0"
         offset="0" />
      <stop
         id="stop1825-8"
         style="stop-color:#ffffff;stop-opacity:0.35211268"
         offset="0.5" />
      <stop
         id="stop1826-0"
         style="stop-color:#ffffff;stop-opacity:0"
         offset="1" />
    </linearGradient>
    <linearGradient
       id="linearGradient1823-7-5">
      <stop
         id="stop1824-0-3"
         style="stop-color:#ffffff;stop-opacity:0"
         offset="0" />
      <stop
         id="stop1825-8-1"
         style="stop-color:#ffffff;stop-opacity:0.35211268"
         offset="0.5" />
      <stop
         id="stop1826-0-6"
         style="stop-color:#ffffff;stop-opacity:0"
         offset="1" />
    </linearGradient>
    <linearGradient
       id="linearGradient1823-7-5-1">
      <stop
         id="stop1824-0-3-4"
         style="stop-color:#ffffff;stop-opacity:0"
         offset="0" />
      <stop
         id="stop1825-8-1-1"
         style="stop-color:#ffffff;stop-opacity:0.35211268"
         offset="0.5" />
      <stop
         id="stop1826-0-6-1"
         style="stop-color:#ffffff;stop-opacity:0"
         offset="1" />
    </linearGradient>
    <linearGradient
       x1="44.144588"
       y1="19776.625"
       x2="3.1722441"
       y2="19776.625"
       id="linearGradient5470-8-6"
       xlink:href="#linearGradient1823-7-5-1-8"
       gradientUnits="userSpaceOnUse"
       gradientTransform="matrix(26.05661,0,0,0.0502935,225.22625,-387.50692)" />
    <linearGradient
       id="linearGradient1823-7-5-1-8">
      <stop
         id="stop1824-0-3-4-3"
         style="stop-color:#ffffff;stop-opacity:0"
         offset="0" />
      <stop
         id="stop1825-8-1-1-9"
         style="stop-color:#ffffff;stop-opacity:0.35211268"
         offset="0.5" />
      <stop
         id="stop1826-0-6-1-5"
         style="stop-color:#ffffff;stop-opacity:0"
         offset="1" />
    </linearGradient>
    <radialGradient
       cx="934.94781"
       cy="232.36862"
       r="392.26614"
       fx="934.94781"
       fy="232.36862"
       id="radialGradient3972"
       xlink:href="#linearGradient3924"
       gradientUnits="userSpaceOnUse"
       gradientTransform="matrix(3.1583078,-0.35125724,0.17452597,1.8649377,-2117.4757,-40.20626)" />
    <linearGradient
       x1="44.144588"
       y1="19776.625"
       x2="3.1722441"
       y2="19776.625"
       id="linearGradient4031"
       xlink:href="#linearGradient1823-7-5-1-8"
       gradientUnits="userSpaceOnUse"
       gradientTransform="matrix(21.213801,0,0,0.04094609,182.48638,-372.25624)" />
    <linearGradient
       x1="44.144588"
       y1="19776.625"
       x2="3.1722441"
       y2="19776.625"
       id="linearGradient4156"
       xlink:href="#linearGradient1823-7-5-1-8"
       gradientUnits="userSpaceOnUse"
       gradientTransform="matrix(21.213801,0,0,0.04094609,182.48638,-372.25624)" />
    <linearGradient
       inkscape:collect="always"
       xlink:href="#linearGradient1823-7-5-1-8"
       id="linearGradient3222"
       gradientUnits="userSpaceOnUse"
       gradientTransform="matrix(21.213801,0,0,0.04094609,182.48638,-372.25624)"
       x1="44.144588"
       y1="19776.625"
       x2="3.1722441"
       y2="19776.625" />
    <radialGradient
       inkscape:collect="always"
       xlink:href="#linearGradient3924"
       id="radialGradient3286"
       gradientUnits="userSpaceOnUse"
       gradientTransform="matrix(2.2127294,-0.24609293,0.12227394,1.3065866,-1310.6905,-153.37549)"
       cx="934.94781"
       cy="232.36862"
       fx="934.94781"
       fy="232.36862"
       r="392.26614" />
  </defs>
  <metadata
     id="metadata4">
    <rdf:RDF>
      <cc:Work
         rdf:about="">
        <dc:format>image/svg+xml</dc:format>
        <dc:type
           rdf:resource="http://purl.org/dc/dcmitype/StillImage" />
        <dc:title />
        <dc:creator>
          <cc:Agent>
            <dc:title>Jan-Victor Krille</dc:title>
          </cc:Agent>
        </dc:creator>
        <dc:rights>
          <cc:Agent>
            <dc:title />
          </cc:Agent>
        </dc:rights>
        <dc:source>http://www.kde.org</dc:source>
        <dc:description>a svg wallpaper for kde 3.4</dc:description>
        <cc:license
           rdf:resource="http://creativecommons.org/licenses/GPL/2.0/" />
      </cc:Work>
      <cc:License
         rdf:about="http://creativecommons.org/licenses/GPL/2.0/">
        <cc:permits
           rdf:resource="http://web.resource.org/cc/Reproduction" />
        <cc:permits
           rdf:resource="http://web.resource.org/cc/Distribution" />
        <cc:requires
           rdf:resource="http://web.resource.org/cc/Notice" />
        <cc:permits
           rdf:resource="http://web.resource.org/cc/DerivativeWorks" />
        <cc:requires
           rdf:resource="http://web.resource.org/cc/ShareAlike" />
        <cc:requires
           rdf:resource="http://web.resource.org/cc/SourceCode" />
      </cc:License>
    </rdf:RDF>
  </metadata>
  <path
     d="M 973.51211,0.7959154 1054.2586,0.2695406 852.8404,415.01768 l 427.1596,0 0,-413.8256061 c 0,0 -224.6516,-1.79889954 -306.48789,-0.3961585 z M 852.8404,415.01768 l -105.09399,0 c -173.48903,468.83891 105.09399,0 105.09399,0 z m -105.09399,0 L 892.1356,0.7959154 C 50.303473,0.4878934 730.40034,0.4406349 730.40034,0.4406349 L 648.75741,415.01768 z M 892.1356,0.7959154 C 981.53415,0.8623676 983.01147,1.007191 892.76547,-1 z"
     id="rect3152"
     style="opacity:0.61333337;fill:url(#radialGradient3286);fill-opacity:1;fill-rule:evenodd;stroke:none"
     inkscape:connector-curvature="0"
     sodipodi:nodetypes="ccccccccccccccccc" />
  <g
     transform="matrix(1.4062682,0,0,1.4062682,-132.72709,-359.68701)"
     id="layer1" />
  <g
     id="g3439"
     transform="matrix(1.0362309,0,0,1.0362309,-52.361632,-31.65482)">
    <g
       id="text2985-9"
       style="font-size:11.70547771px;font-style:normal;font-variant:normal;font-weight:normal;font-stretch:normal;line-height:125%;letter-spacing:0px;word-spacing:0px;fill:#ffffff;fill-opacity:1;stroke:none;font-family:Standard Symbols L;-inkscape-font-specification:Standard Symbols L"
       transform="matrix(0.74389016,0,0,0.74389016,654.08666,429.75176)">
      <path
         id="path4394"
         style="font-size:60.19960022px;font-weight:bold;fill:#ffffff;font-family:Sonsie One;-inkscape-font-specification:Sonsie One Bold"
         d="m 427.4498,709.7684 c -5.72211,1.94003 -9.3768,2.91004 -10.96409,2.91004 -1.5677,0 -2.84146,-0.32334 -3.82126,-0.97001 -0.96022,-0.66628 -1.44033,-1.48932 -1.44033,-2.46913 0,-0.74465 1.28355,-4.68349 3.85066,-11.81652 4.85986,-13.58016 7.28978,-22.34946 7.2898,-26.30793 l -0.0294,-1.11699 c -10e-6,-0.97977 0.95041,-1.46967 2.85125,-1.46971 l 7.67193,0 5.90826,-0.0882 c 0.50947,5e-5 0.8916,0.15682 1.14638,0.47031 0.25472,0.29399 0.38209,0.62712 0.38212,0.99941 -3e-5,1.82249 -1.80288,7.52498 -5.40856,17.1075 l 0.0294,-0.0294 c 1.70484,-1.94 3.76245,-3.43911 6.17281,-4.49733 2.4299,-1.07777 5.04599,-1.61666 7.84829,-1.61669 8.17158,3e-5 12.25738,3.82129 12.25744,11.46379 -6e-5,2.93945 -0.72512,5.7711 -2.17519,8.49496 -1.45016,2.72388 -3.41958,5.09503 -5.90826,7.11343 6.42751,-0.56829 11.45394,-1.84204 15.0793,-3.82126 0.52904,-0.29394 0.98955,-0.44091 1.38153,-0.44092 0.76419,10e-6 1.14632,0.31355 1.14638,0.94062 -6e-5,0.60749 -0.34299,1.16598 -1.0288,1.67548 -2.56716,1.78326 -6.5256,3.36075 -11.87531,4.73249 -5.34982,1.37173 -11.0915,2.0674 -17.22508,2.08699 -0.97985,0.0784 -2.05764,0.11758 -3.23338,0.11758 -1.1758,0 -2.80229,-0.31354 -4.87946,-0.94062 -2.05763,-0.60748 -3.7331,-1.45012 -5.02643,-2.52791 m 13.25684,-21.42847 c -3.68411,2e-5 -6.76072,2.82188 -9.22982,8.46557 -1.1366,2.58671 -1.70489,4.6835 -1.70487,6.29038 -2e-5,1.6069 0.26453,2.71409 0.79365,3.32156 0.54867,0.60749 1.60687,0.91123 3.17459,0.91123 1.58726,0 3.29213,-0.72506 5.11461,-2.17518 1.84201,-1.46971 3.32153,-3.31175 4.43854,-5.52614 1.11695,-2.21436 1.67545,-4.20337 1.67548,-5.96705 -3e-5,-1.78323 -0.39196,-3.11578 -1.17577,-3.99763 -0.78388,-0.8818 -1.81268,-1.32272 -3.08641,-1.32274"
         inkscape:connector-curvature="0" />
      <path
         id="path4396"
         style="font-size:60.19960022px;font-weight:bold;fill:#ffffff;font-family:Sonsie One;-inkscape-font-specification:Sonsie One Bold"
         d="m 476.27379,681.81439 13.93292,-0.32334 c 0.50947,3e-5 0.8916,0.1568 1.14638,0.47031 0.25472,0.29397 0.3821,0.56832 0.38212,0.82304 -2e-5,0.25478 -0.0686,0.6761 -0.20576,1.26395 -0.1372,0.58792 -0.31356,1.30318 -0.5291,2.14579 -0.21558,0.82307 -0.35275,1.35217 -0.41152,1.5873 1.52848,-1.82243 3.43911,-3.42932 5.7319,-4.82068 2.29272,-1.3913 4.31113,-2.08696 6.05523,-2.08699 3.70365,3e-5 5.55549,0.80347 5.55553,2.41033 -4e-5,1.58732 -0.49974,3.49795 -1.49911,5.7319 -0.99945,2.21439 -1.94007,3.67431 -2.82186,4.37975 -0.43115,0.31356 -0.96025,0.47033 -1.58729,0.47031 -0.60752,2e-5 -1.17581,-0.19594 -1.70487,-0.58788 -2.37118,-1.76364 -4.95788,-2.64547 -7.76011,-2.64549 -1.07782,2e-5 -2.01843,0.0784 -2.82185,0.23515 -0.76428,2.62591 -1.97924,6.48637 -3.6449,11.58137 -1.6657,5.07543 -2.58672,7.90708 -2.76307,8.49496 -0.29396,0.92103 -0.84265,1.38154 -1.64608,1.38154 -2.84147,0 -5.88868,0.14697 -9.14164,0.44091 -3.25298,0.31354 -5.12441,0.47031 -5.61432,0.47031 -0.47031,0 -0.84264,-0.13717 -1.11698,-0.41152 -0.25475,-0.25475 -0.38213,-0.55849 -0.38213,-0.91122 0,-0.37233 0.41152,-1.68528 1.23456,-3.93885 0.84264,-2.27315 1.76366,-4.71288 2.76307,-7.31919 1.019,-2.60628 1.94002,-5.46732 2.76307,-8.58314 0.84263,-3.11578 1.26395,-5.67308 1.26396,-7.67192 l -0.0294,-1.11699 c -1e-5,-0.97978 0.95041,-1.46968 2.85125,-1.46971"
         inkscape:connector-curvature="0" />
      <path
         id="path4398"
         style="font-size:60.19960022px;font-weight:bold;fill:#ffffff;font-family:Sonsie One;-inkscape-font-specification:Sonsie One Bold"
         d="m 564.98589,703.68377 c 0.725,10e-6 1.08753,0.33315 1.08759,0.99941 -6e-5,1.31295 -2.50837,3.01782 -7.52495,5.11461 -3.13544,1.31295 -6.58437,2.37115 -10.3468,3.17459 -0.47035,1.31295 -0.89167,2.46912 -1.26396,3.46853 -0.37237,1.019 -1.05823,2.15558 -2.0576,3.40975 -0.97985,1.25415 -2.14583,2.30254 -3.49793,3.14519 -1.33258,0.84263 -2.7729,1.54809 -4.32096,2.11639 -1.52854,0.58788 -3.25301,1.03859 -5.17341,1.35214 -3.46855,0.58787 -7.53477,0.88182 -12.19865,0.88183 -4.64431,-1e-5 -8.22062,-0.51931 -10.72893,-1.5579 -2.50832,-1.03861 -3.76248,-2.53772 -3.76248,-4.49733 0,-1.13659 0.48991,-2.16539 1.46972,-3.08641 0.97981,-0.92102 2.25356,-1.69507 3.82127,-2.32215 1.58728,-0.62708 3.60569,-1.19537 6.05523,-1.70487 4.17398,-0.84264 9.41596,-1.5383 15.72597,-2.087 0.52907,-1.74406 0.91119,-3.20398 1.14638,-4.37975 -5.70253,2.11639 -10.93471,3.17458 -15.69658,3.17458 -6.36878,0 -9.55316,-2.10659 -9.55316,-6.31978 0,-2.95902 0.88183,-6.61371 2.64549,-10.96409 1.78325,-4.36993 2.67488,-7.43674 2.67489,-9.20042 l -0.0294,-1.11699 c 0,-0.97978 0.95041,-1.46968 2.85125,-1.46971 l 6.84888,0.11757 6.20221,-0.44091 c 0.50948,3e-5 0.8916,0.1568 1.14638,0.47031 0.25472,0.29397 0.3821,0.82307 0.38212,1.58729 -2e-5,0.74469 -0.29396,2.05763 -0.88183,3.93884 -0.56831,1.86167 -1.19539,3.60573 -1.88123,5.23219 -1.86167,4.36998 -2.79249,7.30941 -2.79246,8.8183 -3e-5,0.86225 0.31351,1.51872 0.94061,1.96943 0.62706,0.45072 1.4501,0.67607 2.46913,0.67607 2.15556,0 4.16417,-0.59768 6.02584,-1.79306 2.09676,-5.66329 4.02699,-11.96347 5.79068,-18.90056 0.17633,-0.72503 0.69563,-1.08756 1.5579,-1.08759 2.84141,3e-5 5.88862,-0.14694 9.14164,-0.44091 3.25292,-0.31351 5.11456,-0.47028 5.58492,-0.47031 0.48986,3e-5 0.87198,0.11761 1.14638,0.35273 0.2743,0.23518 0.41147,0.46054 0.41152,0.67607 -5e-5,0.84267 -2.92968,9.67076 -8.7889,26.4843 2.90019,-0.68587 5.59467,-1.49911 8.08344,-2.43973 2.50826,-0.96021 4.21313,-1.67547 5.11461,-2.14579 0.92097,-0.4899 1.64603,-0.73485 2.17518,-0.73486 m -35.2438,15.81415 c 0.56826,-1.43053 1.05817,-2.78266 1.46971,-4.05641 -8.81832,1.11698 -13.22746,3.15498 -13.22745,6.11402 -10e-6,0.76424 0.39191,1.4795 1.17577,2.14578 0.80343,0.68586 1.60688,1.02879 2.41034,1.02881 1.78324,-2e-5 3.44892,-0.46053 4.99704,-1.38154 1.54808,-0.90143 2.60627,-2.18499 3.17459,-3.85066"
         inkscape:connector-curvature="0" />
      <path
         id="path4400"
         style="font-size:60.19960022px;font-weight:bold;fill:#ffffff;font-family:Sonsie One;-inkscape-font-specification:Sonsie One Bold"
         d="m 620.33543,703.68377 c 0.725,10e-6 1.08753,0.34294 1.08759,1.0288 -6e-5,0.66628 -0.36259,1.25417 -1.08759,1.76366 -0.70552,0.50951 -1.75392,1.0974 -3.14519,1.76366 -1.39139,0.64668 -3.12566,1.36194 -5.2028,2.14579 -2.05765,0.78385 -4.44839,1.45012 -7.17222,1.99881 -2.70432,0.56829 -5.29102,0.85244 -7.7601,0.85244 -5.82011,0 -8.73015,-1.33254 -8.73012,-3.99763 -3e-5,-1.72446 0.97978,-4.80107 2.93943,-9.22982 1.97919,-4.44833 2.9688,-7.44655 2.96883,-8.99467 -3e-5,-1.74404 -1.36197,-2.61607 -4.08581,-2.61609 -1.23459,2e-5 -2.63572,0.15679 -4.20339,0.47031 -0.74468,2.62591 -2.07723,6.7999 -3.99763,12.52198 -1.90086,5.72211 -2.97865,8.97508 -3.23338,9.75892 -0.23517,0.78385 -0.75447,1.17578 -1.5579,1.17578 l -15.13808,0.32333 c -0.21556,0 -0.46052,-0.13717 -0.73486,-0.41152 -0.25475,-0.25475 -0.38213,-0.55849 -0.38213,-0.91122 0,-0.37233 0.41152,-1.65588 1.23456,-3.85066 0.84264,-2.21437 1.76366,-4.58551 2.76307,-7.11343 1.019,-2.54749 1.94002,-5.33995 2.76307,-8.37738 0.84263,-3.05699 1.26395,-5.5849 1.26396,-7.58374 l -0.0294,-1.11699 c -1e-5,-0.97978 0.95041,-1.46968 2.85125,-1.46971 l 13.93292,-0.32334 c 0.50947,3e-5 0.8916,0.1568 1.14638,0.47031 0.25472,0.29397 0.3821,0.6663 0.38212,1.11698 -2e-5,0.43115 -0.1078,1.13661 -0.32333,2.11639 6.89783,-2.88061 12.56114,-4.32093 16.98992,-4.32096 1.88119,3e-5 3.59586,0.51933 5.14401,1.5579 1.72442,1.1562 2.58665,2.91006 2.5867,5.26158 -5e-5,2.41036 -0.91127,5.56535 -2.73367,9.46498 -1.8225,3.89966 -2.73372,6.30999 -2.73367,7.23101 -5e-5,1.82245 0.72501,2.73367 2.17518,2.73367 0.92097,0 2.48867,-0.34293 4.70309,-1.0288 2.23392,-0.70546 3.88,-1.28355 4.93825,-1.73427 1.07773,-0.4507 1.87138,-0.67606 2.38094,-0.67607"
         inkscape:connector-curvature="0" />
      <path
         id="path4402"
         style="font-size:60.19960022px;font-weight:bold;fill:#ffffff;font-family:Sonsie One;-inkscape-font-specification:Sonsie One Bold"
         d="m 627.74281,681.81439 13.28624,-0.32334 c 0.50948,3e-5 0.8916,0.1568 1.14638,0.47031 0.25472,0.29397 0.3821,0.74468 0.38213,1.35214 -3e-5,0.58791 -0.54872,2.13601 -1.64609,4.6443 -1.07781,2.48874 -2.1654,5.14403 -3.26277,7.96587 -1.09741,2.80227 -1.6461,4.85007 -1.64608,6.14341 -2e-5,2.42994 1.29333,3.64491 3.88005,3.6449 1.23454,10e-6 2.58668,-0.15676 4.05642,-0.47031 0.47028,-1.66567 1.25413,-3.87024 2.35155,-6.61372 2.78263,-6.87826 4.4581,-12.11045 5.02643,-15.69658 0.0979,-0.72503 0.61724,-1.08756 1.5579,-1.08759 2.84141,3e-5 5.82983,-0.0588 8.96527,-0.17637 3.13535,-0.11754 4.9382,-0.17633 5.40856,-0.17636 0.48985,3e-5 0.86218,0.1372 1.11698,0.41152 0.2743,0.25478 0.41147,0.49973 0.41152,0.73486 -5e-5,0.94064 -0.60753,2.92966 -1.82245,5.96705 -1.21501,3.03743 -2.42998,6.18262 -3.64489,9.43558 -1.21502,3.23339 -1.8225,5.59473 -1.82245,7.08403 -5e-5,1.48932 0.65643,2.23398 1.96942,2.23397 1.33249,10e-6 3.16474,-0.35272 5.49674,-1.05819 2.35149,-0.72506 3.98777,-1.34234 4.90885,-1.85185 0.94056,-0.50949 1.54805,-0.76424 1.82245,-0.76425 0.7446,10e-6 1.11693,0.35274 1.11699,1.0582 -6e-5,0.70547 -0.52916,1.38154 -1.5873,2.02821 -1.03866,0.62708 -2.30261,1.27376 -3.79187,1.94002 -1.46977,0.64668 -3.24322,1.33255 -5.32037,2.05761 -4.78153,1.64608 -9.65118,2.46912 -14.60899,2.46912 -4.95787,0 -7.75033,-1.33254 -8.37738,-3.99763 -1.90086,0.78385 -3.45876,1.40113 -4.6737,1.85184 -1.21499,0.43112 -2.90026,0.89163 -5.05583,1.38154 -2.1556,0.5095 -4.13481,0.76425 -5.93765,0.76425 -5.7613,0 -8.64194,-2.35155 -8.64194,-7.05464 0,-1.62648 0.31354,-3.5959 0.94062,-5.90826 0.62708,-2.33194 1.32274,-4.43853 2.087,-6.31978 2.0184,-4.99702 3.02761,-8.09322 3.02762,-9.28861 -10e-6,-1.21494 0.17635,-1.98899 0.52909,-2.32216 0.35273,-0.3527 1.13657,-0.52906 2.35155,-0.52909"
         inkscape:connector-curvature="0" />
      <path
         id="path4404"
         style="font-size:60.19960022px;font-weight:bold;fill:#ffffff;font-family:Sonsie One;-inkscape-font-specification:Sonsie One Bold"
         d="m 701.96351,686.07656 c 0.84261,1.7049 1.48928,3.2432 1.94003,4.61491 3.17455,-3.11577 5.92781,-5.57509 8.2598,-7.37797 2.35151,-1.82242 4.24254,-2.73365 5.67311,-2.73368 1.01896,3e-5 1.92038,0.82308 2.70428,2.46913 0.80339,1.62651 1.20512,3.49795 1.20517,5.61432 -5e-5,0.39194 -0.15682,0.83286 -0.47031,1.32274 -0.29399,0.47033 -0.73491,0.77407 -1.32275,0.91123 -0.58793,0.11759 -1.82249,0.17638 -3.70368,0.17636 -1.88128,2e-5 -3.63514,0.26457 -5.26159,0.79365 -1.60693,0.50952 -3.42937,1.53832 -5.46735,3.0864 2.09676,5.56534 3.89961,9.27882 5.40856,11.14046 0.76421,0.97981 1.77342,1.46972 3.02762,1.46971 1.25411,1e-5 2.8904,-0.33313 4.90885,-0.9994 2.01836,-0.66627 3.55667,-1.31294 4.61491,-1.94003 1.05815,-0.62707 1.793,-0.94061 2.20458,-0.94062 0.82298,10e-6 1.23451,0.36254 1.23456,1.08759 -5e-5,0.48991 -0.42137,1.10719 -1.26396,1.85185 -2.8415,2.48872 -5.98669,4.27197 -9.43558,5.34976 -3.44897,1.0778 -7.29963,1.61669 -11.55197,1.61669 -6.23163,0 -10.38602,-1.31294 -12.4632,-3.93884 -1.17579,-1.45012 -2.29278,-3.41953 -3.35095,-5.90826 -3.09622,2.93944 -5.84949,5.26159 -8.25981,6.96646 -2.41035,1.70487 -4.46795,2.5573 -6.17281,2.55731 -1.25416,-1e-5 -2.31236,-0.80345 -3.17459,-2.41034 -0.84264,-1.62648 -1.26396,-3.30196 -1.26396,-5.02643 0,-1.72446 0.44092,-2.62589 1.32275,-2.70428 0.5095,-0.0588 1.43052,-0.10777 2.76306,-0.14697 1.35214,-0.0392 2.73367,-0.10777 4.14461,-0.20576 3.42932,-0.23515 6.43734,-1.33254 9.02406,-3.29217 -0.19598,-0.58787 -0.51932,-1.56768 -0.97002,-2.93943 -0.43113,-1.37172 -0.76426,-2.39072 -0.9994,-3.05701 -1.23458,-3.48811 -2.38096,-5.50652 -3.43914,-6.05524 -0.50951,-0.27432 -1.24437,-0.41149 -2.20458,-0.41152 -0.96022,3e-5 -1.90084,0.0882 -2.82185,0.26455 -0.92103,0.17639 -1.48932,0.26458 -1.70487,0.26455 -0.74466,3e-5 -1.11699,-0.35271 -1.11699,-1.0582 0,-0.70543 0.78385,-1.48928 2.35155,-2.35154 1.56769,-0.8818 3.69388,-1.64606 6.37857,-2.29276 2.70426,-0.64664 5.02641,-0.96998 6.96646,-0.97001 1.94,3e-5 3.37053,0.049 4.29157,0.14697 0.921,0.0784 1.74404,0.23518 2.46912,0.47031 0.72504,0.21559 1.36192,0.45074 1.91064,0.70546 0.54866,0.23519 1.04837,0.57812 1.49911,1.0288 0.45068,0.43115 0.83281,0.85247 1.14638,1.26396 0.31351,0.39195 0.63684,0.92105 0.97001,1.58729"
         inkscape:connector-curvature="0" />
    </g>
    <path
       inkscape:connector-curvature="0"
       id="path4262"
       d="m 1211.875,927.375 c -5.722,0 -10.375,4.62176 -10.375,10.34375 0,5.72199 4.653,10.375 10.375,10.375 5.722,0 10.3438,-4.65301 10.3438,-10.375 -1e-4,-5.72199 -4.6218,-10.34375 -10.3438,-10.34375 z m 0.4688,4.3125 c 0.1245,10e-6 0.1877,0.0171 0.25,0.0937 0.062,0.0719 0.094,0.15901 0.094,0.25 0,0.44544 -0.4312,1.84543 -1.3125,4.1875 0.4167,-0.47416 0.9421,-0.83511 1.5312,-1.09375 0.5939,-0.26342 1.2214,-0.40624 1.9063,-0.40625 1.9972,10e-6 3,0.94459 3,2.8125 0,0.71843 -0.1768,1.39676 -0.5313,2.0625 -0.3544,0.66575 -0.8292,1.25668 -1.4374,1.75 1.5709,-0.1389 2.8014,-0.45376 3.6874,-0.9375 0.1294,-0.0718 0.2167,-0.125 0.3126,-0.125 0.1867,0 0.2812,0.0967 0.2812,0.25 0,0.14848 -0.082,0.28172 -0.25,0.40625 -0.6274,0.43585 -1.5987,0.82098 -2.9062,1.15625 -1.3076,0.33527 -2.6884,0.49521 -4.1876,0.5 -0.2394,0.0192 -0.5251,0.0312 -0.8124,0.0312 -0.2874,0 -0.6799,-0.0655 -1.1876,-0.21875 -0.5029,-0.14848 -0.9026,-0.36158 -1.2187,-0.625 -1.3985,0.47416 -2.2995,0.71875 -2.6875,0.71875 -0.3832,0 -0.698,-0.0919 -0.9375,-0.25 -0.2347,-0.16284 -0.3438,-0.35427 -0.3437,-0.59375 -10e-5,-0.182 0.31,-1.16286 0.9374,-2.90625 1.1879,-3.31914 1.7813,-5.43876 1.7813,-6.40625 l 0,-0.28125 c 0,-0.23947 0.2229,-0.34374 0.6875,-0.34375 l 1.875,0 1.4688,-0.0312 z m 0.4687,4.84375 c -0.9004,10e-6 -1.6778,0.71437 -2.2813,2.09375 -0.2777,0.63222 -0.4062,1.13851 -0.4062,1.53125 0,0.39274 0.058,0.66403 0.1875,0.8125 0.1341,0.14848 0.3981,0.21875 0.7813,0.21875 0.3879,0 0.8045,-0.17682 1.25,-0.53125 0.4502,-0.35921 0.8207,-0.80253 1.0937,-1.34375 0.273,-0.54121 0.4062,-1.03769 0.4063,-1.46875 -1e-4,-0.43584 -0.09,-0.75322 -0.2813,-0.96875 -0.1916,-0.21552 -0.4387,-0.34374 -0.75,-0.34375 z"
       style="fill:#ffffff;fill-opacity:1;fill-rule:evenodd;stroke:none" />
  </g>
</svg>
