<?xml version="1.0" encoding="UTF-8" standalone="no"?>
<svg
   xmlns:dc="http://purl.org/dc/elements/1.1/"
   xmlns:cc="http://creativecommons.org/ns#"
   xmlns:rdf="http://www.w3.org/1999/02/22-rdf-syntax-ns#"
   xmlns:svg="http://www.w3.org/2000/svg"
   xmlns="http://www.w3.org/2000/svg"
   xmlns:xlink="http://www.w3.org/1999/xlink"
   xmlns:sodipodi="http://sodipodi.sourceforge.net/DTD/sodipodi-0.dtd"
   xmlns:inkscape="http://www.inkscape.org/namespaces/inkscape"
   width="82.438805"
   height="70.734604"
   id="svg2"
   version="1.1"
   inkscape:version="0.48.4 r9939"
   sodipodi:docname="google-drive.svg">
  <metadata
     id="metadata32776">
    <rdf:RDF>
      <cc:Work
         rdf:about="">
        <dc:format>image/svg+xml</dc:format>
        <dc:type
           rdf:resource="http://purl.org/dc/dcmitype/StillImage" />
        <dc:title />
      </cc:Work>
    </rdf:RDF>
  </metadata>
  <defs
     id="defs32774">
    <linearGradient
       id="linearGradient4080">
      <stop
         style="stop-color:#004ae3;stop-opacity:1;"
         offset="0"
         id="stop4082" />
      <stop
         style="stop-color:#3e82f7;stop-opacity:1;"
         offset="1"
         id="stop4084" />
    </linearGradient>
    <linearGradient
       id="linearGradient4070">
      <stop
         id="stop4072"
         offset="0"
         style="stop-color:#008c47;stop-opacity:1;" />
      <stop
         id="stop4074"
         offset="1"
         style="stop-color:#2eb571;stop-opacity:1;" />
    </linearGradient>
    <linearGradient
       id="linearGradient4058">
      <stop
         style="stop-color:#e1a415;stop-opacity:1;"
         offset="0"
         id="stop4060" />
      <stop
         style="stop-color:#fdd04a;stop-opacity:1;"
         offset="1"
         id="stop4062" />
    </linearGradient>
    <linearGradient
       inkscape:collect="always"
       xlink:href="#linearGradient4058"
       id="linearGradient4064"
       x1="80.418823"
       y1="75.96228"
       x2="78.775063"
       y2="65.098953"
       gradientUnits="userSpaceOnUse"
       gradientTransform="translate(-11.994962,-27.499168)" />
    <linearGradient
       inkscape:collect="always"
       xlink:href="#linearGradient4070"
       id="linearGradient4068"
       gradientUnits="userSpaceOnUse"
       x1="80.418823"
       y1="75.96228"
       x2="78.775063"
       y2="65.098953"
       gradientTransform="matrix(-0.49240594,-0.87036568,0.87036568,-0.49240594,8.551737,119.53407)" />
    <linearGradient
       inkscape:collect="always"
       xlink:href="#linearGradient4080"
       id="linearGradient4078"
       gradientUnits="userSpaceOnUse"
       gradientTransform="matrix(-0.49228223,0.87043566,-0.87043566,-0.49228223,126.51331,26.992345)"
       x1="80.418823"
       y1="75.96228"
       x2="78.775063"
       y2="65.098953" />
  </defs>
  <sodipodi:namedview
     pagecolor="#ffffff"
     bordercolor="#666666"
     borderopacity="1"
     objecttolerance="10"
     gridtolerance="10"
     guidetolerance="10"
     inkscape:pageopacity="0"
     inkscape:pageshadow="2"
     inkscape:window-width="1366"
     inkscape:window-height="702"
     id="namedview32772"
     showgrid="false"
     inkscape:zoom="4.6486679"
     inkscape:cx="58.772575"
     inkscape:cy="21.494508"
     inkscape:window-x="0"
     inkscape:window-y="27"
     inkscape:window-maximized="1"
     inkscape:current-layer="svg2"
     fit-margin-top="0"
     fit-margin-left="0"
     fit-margin-right="0"
     fit-margin-bottom="0" />
  <path
     style="fill:url(#linearGradient4064);fill-opacity:1;stroke:none"
     d="M 28.412399,0.2831 55.836669,48.564834 82.375963,48.448048 54.289476,0.175542 z"
     id="path4048"
     inkscape:connector-curvature="0"
     sodipodi:nodetypes="ccccc" />
  <path
     style="fill:url(#linearGradient4078);fill-opacity:1;stroke:none"
     d="m 82.438804,48.487643 -56.659796,0.07132 -12.981622,22.151074 56.135757,0.02457 z"
     id="path4076"
     inkscape:connector-curvature="0"
     sodipodi:nodetypes="ccccc"
     inkscape:transform-center-y="-0.75290385" />
  <path
     sodipodi:nodetypes="ccccc"
     inkscape:connector-curvature="0"
     id="path4066"
     d="M 12.835641,70.684739 41.354531,23.041385 28.184778,0 0,48.215182 z"
     style="fill:url(#linearGradient4068);fill-opacity:1;stroke:none" />
</svg>
