<?xml version="1.0" encoding="UTF-8" standalone="no"?>
<svg
   xmlns:dc="http://purl.org/dc/elements/1.1/"
   xmlns:cc="http://creativecommons.org/ns#"
   xmlns:rdf="http://www.w3.org/1999/02/22-rdf-syntax-ns#"
   xmlns:svg="http://www.w3.org/2000/svg"
   xmlns="http://www.w3.org/2000/svg"
   xmlns:sodipodi="http://sodipodi.sourceforge.net/DTD/sodipodi-0.dtd"
   xmlns:inkscape="http://www.inkscape.org/namespaces/inkscape"
   width="106.55387"
   height="129.14099"
   id="svg2"
   version="1.1"
   inkscape:version="0.48.4 r9939"
   sodipodi:docname="google-docs.svg">
  <metadata
     id="metadata32776">
    <rdf:RDF>
      <cc:Work
         rdf:about="">
        <dc:format>image/svg+xml</dc:format>
        <dc:type
           rdf:resource="http://purl.org/dc/dcmitype/StillImage" />
        <dc:title />
      </cc:Work>
    </rdf:RDF>
  </metadata>
  <defs
     id="defs32774" />
  <sodipodi:namedview
     pagecolor="#ffffff"
     bordercolor="#666666"
     borderopacity="1"
     objecttolerance="10"
     gridtolerance="10"
     guidetolerance="10"
     inkscape:pageopacity="0"
     inkscape:pageshadow="2"
     inkscape:window-width="1920"
     inkscape:window-height="1048"
     id="namedview32772"
     showgrid="false"
     inkscape:zoom="1.9642103"
     inkscape:cx="332.65732"
     inkscape:cy="64.570498"
     inkscape:window-x="1920"
     inkscape:window-y="0"
     inkscape:window-maximized="1"
     inkscape:current-layer="svg2"
     fit-margin-top="0"
     fit-margin-left="0"
     fit-margin-right="0"
     fit-margin-bottom="0" />
  <g
     id="g3881"
     transform="translate(-191.65625,0.3284951)">
    <path
       id="rect3010"
       d="m 201.46875,0.1875 c -5.44072,0 -9.8125,4.3675148 -9.8125,9.78125 l 0,109.09375 c 0,5.41374 4.37178,9.75 9.8125,9.75 l 86.4375,0 c 5.44072,0 9.84375,-4.33626 9.84375,-9.75 l 0,-89.125 -29.96875,-29.75 -66.3125,0 z"
       style="fill:#467ac7;fill-opacity:1;fill-rule:nonzero;stroke:none"
       inkscape:connector-curvature="0" />
    <path
       style="fill:#ffffff;stroke:#feffff;stroke-width:7.98344994;stroke-linecap:butt;stroke-linejoin:miter;stroke-miterlimit:4;stroke-opacity:1;stroke-dasharray:none"
       d="m 209.25038,50.248322 72.04526,0.139337"
       id="path3000"
       inkscape:connector-curvature="0"
       sodipodi:nodetypes="cc" />
    <path
       sodipodi:nodetypes="cc"
       inkscape:connector-curvature="0"
       id="path3780"
       d="m 209.25038,65.648322 72.04526,0.139337"
       style="fill:#ffffff;stroke:#feffff;stroke-width:7.98344994;stroke-linecap:butt;stroke-linejoin:miter;stroke-miterlimit:4;stroke-opacity:1;stroke-dasharray:none" />
    <path
       style="fill:#ffffff;stroke:#feffff;stroke-width:7.98344994;stroke-linecap:butt;stroke-linejoin:miter;stroke-miterlimit:4;stroke-opacity:1;stroke-dasharray:none"
       d="m 209.25038,82.648322 72.04526,0.139337"
       id="path3782"
       inkscape:connector-curvature="0"
       sodipodi:nodetypes="cc" />
    <path
       sodipodi:nodetypes="cc"
       inkscape:connector-curvature="0"
       id="path3784"
       d="m 209.20112,98.599065 41.16996,0.237851"
       style="fill:#ffffff;stroke:#feffff;stroke-width:7.8849349;stroke-linecap:butt;stroke-linejoin:miter;stroke-miterlimit:4;stroke-opacity:1;stroke-dasharray:none" />
    <path
       sodipodi:nodetypes="cccc"
       inkscape:connector-curvature="0"
       id="path3796"
       d="m 297.9486,61.594008 -0.18718,-31.148158 -30.58664,0 z"
       style="fill:#000000;fill-opacity:0.29411765;stroke:none" />
    <path
       style="fill:#ffffff;fill-opacity:0.29411765;stroke:none"
       d="m 267.23631,-0.3284951 0.38718,30.7481581 30.58663,0 z"
       id="path3794"
       inkscape:connector-curvature="0"
       sodipodi:nodetypes="cccc" />
  </g>
</svg>
