{
    "app-id": "org.gnome.timetrack",
    "runtime" : "org.gnome.Platform",
    "runtime-version" : "master",
    "sdk" : "org.gnome.Sdk",
    "command" : "gnome-timetrack",
    "finish-args" : [
        "--share=ipc",
        "--socket=x11",
        "--socket=wayland",
        "--filesystem=xdg-run/dconf",
        "--filesystem=~/.config/dconf:ro",
        "--filesystem=xdg-run/gvfs",
        "--env=DCONF_USER_CONFIG_DIR=.config/dconf",
        "--talk-name=ca.desrt.dconf",
        "--talk-name=org.gtk.vfs",
        "--talk-name=org.gtk.vfs.*",
        "--talk-name=org.freedesktop.Notifications"
    ],
    "modules" : [
        {
            "name" : "timetrack",
            "buildsystem" : "meson",
            "builddir" : true,
            "sources" : [
                {
                    "type" : "git",
                    "url" : "https://gitlab.gnome.org/danigm/timetrack.git"
                }
            ]
        }
    ]
}
