<?xml version="1.0" encoding="UTF-8" standalone="no"?>
<!-- Created with Inkscape (http://www.inkscape.org/) -->

<svg
   xmlns:dc="http://purl.org/dc/elements/1.1/"
   xmlns:cc="http://creativecommons.org/ns#"
   xmlns:rdf="http://www.w3.org/1999/02/22-rdf-syntax-ns#"
   xmlns:svg="http://www.w3.org/2000/svg"
   xmlns="http://www.w3.org/2000/svg"
   xmlns:xlink="http://www.w3.org/1999/xlink"
   xmlns:sodipodi="http://sodipodi.sourceforge.net/DTD/sodipodi-0.dtd"
   xmlns:inkscape="http://www.inkscape.org/namespaces/inkscape"
   version="1.1"
   width="750"
   height="120"
   id="svg2"
   inkscape:version="0.48.4 r9939"
   sodipodi:docname="AskFedoraprojectorg.svg">
  <sodipodi:namedview
     pagecolor="#ffffff"
     bordercolor="#666666"
     borderopacity="1"
     objecttolerance="10"
     gridtolerance="10"
     guidetolerance="10"
     inkscape:pageopacity="0"
     inkscape:pageshadow="2"
     inkscape:window-width="1600"
     inkscape:window-height="880"
     id="namedview58"
     showgrid="false"
     inkscape:zoom="0.83721443"
     inkscape:cx="680.80266"
     inkscape:cy="-157.55391"
     inkscape:window-x="-2"
     inkscape:window-y="-3"
     inkscape:window-maximized="1"
     inkscape:current-layer="svg2" />
  <metadata
     id="metadata8">
    <rdf:RDF>
      <cc:Work
         rdf:about="">
        <dc:format>image/svg+xml</dc:format>
        <dc:type
           rdf:resource="http://purl.org/dc/dcmitype/StillImage" />
        <dc:title />
      </cc:Work>
    </rdf:RDF>
  </metadata>
  <defs
     id="defs6" />
  <image
     xlink:href="data:image/jpeg;base64,/9j/4AAQSkZJRgABAQAAAQABAAD/2wBDAAgGBgcGBQgHBwcJCQgKDBQNDAsLDBkSEw8UHRofHh0a HBwgJC4nICIsIxwcKDcpLDAxNDQ0Hyc5PTgyPC4zNDL/2wBDAQkJCQwLDBgNDRgyIRwhMjIyMjIy MjIyMjIyMjIyMjIyMjIyMjIyMjIyMjIyMjIyMjIyMjIyMjIyMjIyMjIyMjL/wAARCAB4Au4DASIA AhEBAxEB/8QAHwAAAQUBAQEBAQEAAAAAAAAAAAECAwQFBgcICQoL/8QAtRAAAgEDAwIEAwUFBAQA AAF9AQIDAAQRBRIhMUEGE1FhByJxFDKBkaEII0KxwRVS0fAkM2JyggkKFhcYGRolJicoKSo0NTY3 ODk6Q0RFRkdISUpTVFVWV1hZWmNkZWZnaGlqc3R1dnd4eXqDhIWGh4iJipKTlJWWl5iZmqKjpKWm p6ipqrKztLW2t7i5usLDxMXGx8jJytLT1NXW19jZ2uHi4+Tl5ufo6erx8vP09fb3+Pn6/8QAHwEA AwEBAQEBAQEBAQAAAAAAAAECAwQFBgcICQoL/8QAtREAAgECBAQDBAcFBAQAAQJ3AAECAxEEBSEx BhJBUQdhcRMiMoEIFEKRobHBCSMzUvAVYnLRChYkNOEl8RcYGRomJygpKjU2Nzg5OkNERUZHSElK U1RVVldYWVpjZGVmZ2hpanN0dXZ3eHl6goOEhYaHiImKkpOUlZaXmJmaoqOkpaanqKmqsrO0tba3 uLm6wsPExcbHyMnK0tPU1dbX2Nna4uPk5ebn6Onq8vP09fb3+Pn6/9oADAMBAAIRAxEAPwD1/oMY 3Z557+59qXORnlu/P8X/ANak6DGN2eee/ufalzkZ5bvz/F/9agBvXp9dx/nS/d4xjHOT29z70nXp 9dx/nS/d4xjHOT29z70AKfX09e3uabjPHI9+/wD+unH19PXt7mm4zxyPfv8A/roAXOO23HGR/D7D 3oPHt24/h/8Ar0Zx2244yP4fYe9B49u3H8P/ANegBAM9Bjtgd/alzzjnnjjv7D2pAM9Bjtgd/alz zjnnjjv7D2oADj8/Tv7CkAzzgY9B0P8A9alOPz9O/sKQDPOBj0HQ/wD1qAFByenXnn+L3PtQcfXv /vf/AFqAcnp155/i9z7UHH17/wC9/wDWoAAP4vx+nvQD+HfB7e596AP4vx+nvQD+HfB7e596AEJA /Dnn+ZpQNvPPp9Pb60hIH4c8/wAzSgbeefT6e31oAUHt07cfw+w96acZ+77Y9Pb604Ht07cfw+w9 6acZ+77Y9Pb60ALjHYtn07+w9qXOR6/Tv7CkxjsWz6d/Ye1LnI9fp39hQA3gngZz+X0FL0GMbs88 9/c+1JwTwM5/L6Cl6DGN2eee/ufagBc5GeW78/xf/WpvXp9dx/nTs5GeW78/xf8A1qb16fXcf50A L93jGMc5Pb3PvSn19PXt7mk+7xjGOcnt7n3pT6+nr29zQA3GeOR79/8A9dLnHbbjjI/h9h70mM8c j37/AP66XOO23HGR/D7D3oADx7duP4f/AK9IBnoMdsDv7Up49u3H8P8A9ekAz0GO2B39qAFzzjnn jjv7D2oOPz9O/sKM8455447+w9qDj8/Tv7CgBAM84GPQdD/9alByenXnn+L3PtSAZ5wMeg6H/wCt Sg5PTrzz/F7n2oADj69/97/61AH8X4/T3oOPr3/3v/rUAfxfj9PegAB/Dvg9vc+9ISB+HPP8zSg/ h3we3ufekJA/Dnn+ZoAUDbzz6fT2+tKD26duP4fYe9IBt559Pp7fWlB7dO3H8PsPegBpxn7vtj09 vrS4x2LZ9O/sPakOM/d9sent9aXGOxbPp39h7UALnI9fp39hTeCeBnP5fQU7OR6/Tv7Cm8E8DOfy +goAXoMY3Z557+59qXORnlu/P8X/ANak6DGN2eee/ufalzkZ5bvz/F/9agBvXp9dx/nS/d4xjHOT 29z70nXp9dx/nS/d4xjHOT29z70AKfX09e3uabjPHI9+/wD+unH19PXt7mm4zxyPfv8A/roAXOO2 3HGR/D7D3oPHt24/h/8Ar0Zx2244yP4fYe9B49u3H8P/ANegBAM9Bjtgd/alzzjnnjjv7D2pAM9B jtgd/alzzjnnjjv7D2oADj8/Tv7CkAzzgY9B0P8A9alOPz9O/sKQDPOBj0HQ/wD1qAFByenXnn+L 3PtQcfXv/vf/AFqAcnp155/i9z7UHH17/wC9/wDWoAAP4vx+nvQD+HfB7e596AP4vx+nvQD+HfB7 e596AEJA/Dnn+ZpQNvPPp9Pb60hIH4c8/wAzSgbeefT6e31oAUHt07cfw+w96acZ+77Y9Pb604Ht 07cfw+w96acZ+77Y9Pb60ALjHYtn07+w9qXOR6/Tv7CkxjsWz6d/Ye1LnI9fp39hQA3gngZz+X0F L0GMbs889/c+1JwTwM5/L6Cl6DGN2eee/ufagBc5GeW78/xf/WpvXp9dx/nTs5GeW78/xf8A1qb1 6fXcf50AL93jGMc5Pb3PvSn19PXt7mk+7xjGOcnt7n3pT6+nr29zQA3GeOR79/8A9dLnHbbjjI/h 9h70mM8cj37/AP66XOO23HGR/D7D3oADx7duP4f/AK9IBnoMdsDv7Up49u3H8P8A9ekAz0GO2B39 qAFzzjnnjjv7D2oOPz9O/sKM8455447+w9qDj8/Tv7CgBAM84GPQdD/9alByenXnn+L3PtSAZ5wM eg6H/wCtSg5PTrzz/F7n2oADj69/97/61AH8X4/T3oOPr3/3v/rUAfxfj9PegAB/Dvg9vc+9ISB+ HPP8zSg/h3we3ufekJA/Dnn+ZoAUDbzz6fT2+tKD26duP4fYe9IBt559Pp7fWlB7dO3H8PsPegBp xn7vtj09vrS4x2LZ9O/sPakOM/d9sent9aXGOxbPp39h7UALnI9fp39hTeCeBnP5fQU7OR6/Tv7C m8E8DOfy+goAXoMY3Z557+59qUfNj52Gecgcn/61J0GMbs889/c+1KPmx87DPOQOT/8AWoAToMY3 Z557+59qXORnlu/P8X/1qToMY3Z557+59qXORnlu/P8AF/8AWoAb16fXcf50v3eMYxzk9vc+9J16 fXcf50v3eMYxzk9vc+9ACn19PXt7mm4zxyPfv/8Arpx9fT17e5puM8cj37//AK6AFzjttxxkfw+w 96Dx7duP4f8A69GcdtuOMj+H2HvQePbtx/D/APXoAQDPQY7YHf2pc8455447+w9qQDPQY7YHf2pc 8455447+w9qAA4/P07+wpAM84GPQdD/9alOPz9O/sKQDPOBj0HQ//WoAUHJ6deef4vc+1Bx9e/8A vf8A1qAcnp155/i9z7UHH17/AO9/9agAA/i/H6e9AP4d8Ht7n3oA/i/H6e9AP4d8Ht7n3oAQkD8O ef5mlA288+n09vrSEgfhzz/M0oG3nn0+nt9aAFB7dO3H8PsPemnGfu+2PT2+tOB7dO3H8PsPemnG fu+2PT2+tAC4x2LZ9O/sPalzkev07+wpMY7Fs+nf2HtS5yPX6d/YUAN4J4Gc/l9BS9BjG7PPPf3P tScE8DOfy+gpegxjdnnnv7n2oAXORnlu/P8AF/8AWpvXp9dx/nTs5GeW78/xf/WpvXp9dx/nQAv3 eMYxzk9vc+9KfX09e3uaT7vGMY5ye3ufelPr6evb3NADcZ45Hv3/AP10ucdtuOMj+H2HvSYzxyPf v/8Arpc47bccZH8PsPegAPHt24/h/wDr0gGegx2wO/tSnj27cfw//XpAM9Bjtgd/agBc8455447+ w9qDj8/Tv7CjPOOeeOO/sPag4/P07+woAQDPOBj0HQ//AFqUHJ6deef4vc+1IBnnAx6Dof8A61KD k9OvPP8AF7n2oADj69/97/61AH8X4/T3oOPr3/3v/rUAfxfj9PegAB/Dvg9vc+9ISB+HPP8AM0oP 4d8Ht7n3pCQPw55/maAFA288+n09vrSg9unbj+H2HvSAbeefT6e31pQe3Ttx/D7D3oAacZ+77Y9P b60uMdi2fTv7D2pDjP3fbHp7fWlxjsWz6d/Ye1AC5yPX6d/YU3gngZz+X0FOzkev07+wpvBPAzn8 voKAF6DGN2eee/ufalzkZ5bvz/F/9ak6DGN2eee/ufalzkZ5bvz/ABf/AFqAG9en13H+dL93jGMc 5Pb3PvSden13H+dL93jGMc5Pb3PvQAp9fT17e5puM8cj37//AK6cfX09e3uabjPHI9+//wCugBc4 7bccZH8PsPeg8e3bj+H/AOvRnHbbjjI/h9h70Hj27cfw/wD16AEAz0GO2B39qXPOOeeOO/sPakAz 0GO2B39qXPOOeeOO/sPagAOPz9O/sKQDPOBj0HQ//WpTj8/Tv7CkAzzgY9B0P/1qAFByenXnn+L3 PtQcfXv/AL3/ANagHJ6deef4vc+1Bx9e/wDvf/WoAAP4vx+nvQD+HfB7e596AP4vx+nvQD+HfB7e 596AEJA/Dnn+ZpQNvPPp9Pb60hIH4c8/zNKBt559Pp7fWgBQe3Ttx/D7D3ppxn7vtj09vrTge3Tt x/D7D3ppxn7vtj09vrQAuMdi2fTv7D2pc5Hr9O/sKTGOxbPp39h7Uucj1+nf2FADeCeBnP5fQUvQ Yxuzzz39z7UnBPAzn8voKXoMY3Z557+59qAFzkZ5bvz/ABf/AFqb16fXcf507ORnlu/P8X/1qb16 fXcf50AL93jGMc5Pb3PvSn19PXt7mk+7xjGOcnt7n3pT6+nr29zQA3GeOR79/wD9dLnHbbjjI/h9 h70mM8cj37//AK6XOO23HGR/D7D3oADx7duP4f8A69IBnoMdsDv7Up49u3H8P/16QDPQY7YHf2oA XPOOeeOO/sPag4/P07+wozzjnnjjv7D2oOPz9O/sKAEAzzgY9B0P/wBalByenXnn+L3PtSAZ5wMe g6H/AOtSg5PTrzz/ABe59qAA4+vf/e/+tQB/F+P096Dj69/97/61AH8X4/T3oAAfw74Pb3PvSEgf hzz/ADNKD+HfB7e596QkD8Oef5mgBQNvPPp9Pb60oPbp24/h9h70gG3nn0+nt9aUHt07cfw+w96A GnGfu+2PT2+tLjHYtn07+w9qQ4z932x6e31pcY7Fs+nf2HtQAucj1+nf2FN4J4Gc/l9BTs5Hr9O/ sKbwTwM5/L6CgBegxjdnnnv7n2pR82PnYZ5yByf/AK1J0GMbs889/c+1KPmx87DPOQOT/wDWoATo MY3Z557+59qXORnlu/P8X/1qToMY3Z557+59qXORnlu/P8X/ANagBvXp9dx/nS/d4xjHOT29z70n Xp9dx/nS/d4xjHOT29z70AKfX09e3uabjPHI9+//AOunH19PXt7mm4zxyPfv/wDroAXOO23HGR/D 7D3oPHt24/h/+vRnHbbjjI/h9h70Hj27cfw//XoAQDPQY7YHf2pc8455447+w9qQDPQY7YHf2pc8 455447+w9qAA4/P07+wpAM84GPQdD/8AWpTj8/Tv7CkAzzgY9B0P/wBagBQcnp155/i9z7UHH17/ AO9/9agHJ6deef4vc+1Bx9e/+9/9agAA/i/H6e9AP4d8Ht7n3oA/i/H6e9AP4d8Ht7n3oAQkD8Oe f5mlA288+n09vrSEgfhzz/M0oG3nn0+nt9aAFB7dO3H8PsPemnGfu+2PT2+tOB7dO3H8PsPemnGf u+2PT2+tAC4x2LZ9O/sPalzkev07+wpMY7Fs+nf2HtS5yPX6d/YUAN4J4Gc/l9BS9BjG7PPPf3Pt ScE8DOfy+gpegxjdnnnv7n2oAXORnlu/P8X/ANam9en13H+dOzkZ5bvz/F/9am9en13H+dAC/d4x jHOT29z70p9fT17e5pPu8YxjnJ7e596U+vp69vc0ANxnjke/f/8AXS5x2244yP4fYe9JjPHI9+// AOulzjttxxkfw+w96AA8e3bj+H/69IBnoMdsDv7Up49u3H8P/wBekAz0GO2B39qAFzzjnnjjv7D2 oOPz9O/sKM8455447+w9qDj8/Tv7CgBAM84GPQdD/wDWpQcnp155/i9z7UgGecDHoOh/+tSg5PTr zz/F7n2oADj69/8Ae/8ArUAfxfj9Peg4+vf/AHv/AK1AH8X4/T3oAAfw74Pb3PvSEgfhzz/M0oP4 d8Ht7n3pCQPw55/maAFA288+n09vrSg9unbj+H2HvSAbeefT6e31pQe3Ttx/D7D3oAacZ+77Y9Pb 60uMdi2fTv7D2pDjP3fbHp7fWlxjsWz6d/Ye1AC5yPX6d/YU3gngZz+X0FOzkev07+wpvBPAzn8v oKAF6DGN2eee/ufalzkZ5bvz/F/9ak6DGN2eee/ufalzkZ5bvz/F/wDWoAb16fXcf50v3eMYxzk9 vc+9J16fXcf50v3eMYxzk9vc+9ACn19PXt7mm4zxyPfv/wDrpx9fT17e5puM8cj37/8A66AFzjtt xxkfw+w96Dx7duP4f/r0Zx2244yP4fYe9B49u3H8P/16AEAz0GO2B39qXPOOeeOO/sPakAz0GO2B 39qXPOOeeOO/sPagAOPz9O/sKQDPOBj0HQ//AFqU4/P07+wpAM84GPQdD/8AWoAUHJ6deef4vc+1 Bx9e/wDvf/WoByenXnn+L3PtQcfXv/vf/WoAAP4vx+nvQD+HfB7e596AP4vx+nvQD+HfB7e596AE JA/Dnn+ZpQNvPPp9Pb60hIH4c8/zNKBt559Pp7fWgBQe3Ttx/D7D3ppxn7vtj09vrTge3Ttx/D7D 3ppxn7vtj09vrQAuMdi2fTv7D2pc5Hr9O/sKTGOxbPp39h7Uucj1+nf2FADeCeBnP5fQUvQYxuzz z39z7UnBPAzn8voKXoMY3Z557+59qAFzkZ5bvz/F/wDWpvXp9dx/nTs5GeW78/xf/WpvXp9dx/nQ Av3eMYxzk9vc+9KfX09e3uaT7vGMY5ye3ufelPr6evb3NADcZ45Hv3//AF0ucdtuOMj+H2HvSYzx yPfv/wDrpc47bccZH8PsPegAPHt24/h/+vSAZ6DHbA7+1KePbtx/D/8AXpAM9Bjtgd/agBc84554 47+w9qDj8/Tv7CjPOOeeOO/sPag4/P07+woAQDPOBj0HQ/8A1qUHJ6deef4vc+1IBnnAx6Dof/rU oOT0688/xe59qAA4+vf/AHv/AK1AH8X4/T3oOPr3/wB7/wCtQB/F+P096AAH8O+D29z70hIH4c8/ zNKD+HfB7e596QkD8Oef5mgBQNvPPp9Pb60oPbp24/h9h70gG3nn0+nt9aUHt07cfw+w96AGnGfu +2PT2+tLjHYtn07+w9qQ4z932x6e31pcY7Fs+nf2HtQAucj1+nf2FN4J4Gc/l9BTs5Hr9O/sKbwT wM5/L6CgBegxjdnnnv7n2pR82PnYZ5yByf8A61J0GMbs889/c+1KPmx87DPOQOT/APWoAToMY3Z5 57+59qXORnlu/P8AF/8AWpOgxjdnnnv7n2pc5GeW78/xf/WoAb16fXcf50v3eMYxzk9vc+9J16fX cf50v3eMYxzk9vc+9ACn19PXt7mm4zxyPfv/APrpx9fT17e5puM8cj37/wD66AFzjttxxkfw+w96 Dx7duP4f/r0Zx2244yP4fYe9B49u3H8P/wBegBAM9Bjtgd/alzzjnnjjv7D2pAM9Bjtgd/alzzjn njjv7D2oADj8/Tv7CkAzzgY9B0P/ANalOPz9O/sKQDPOBj0HQ/8A1qAFByenXnn+L3PtQcfXv/vf /WoByenXnn+L3PtQcfXv/vf/AFqAAD+L8fp70A/h3we3ufegD+L8fp70A/h3we3ufegBCQPw55/m aUDbzz6fT2+tISB+HPP8zSgbeefT6e31oAUHt07cfw+w96acZ+77Y9Pb604Ht07cfw+w96acZ+77 Y9Pb60ALjHYtn07+w9qXOR6/Tv7CkxjsWz6d/Ye1LnI9fp39hQA3gngZz+X0FL0GMbs889/c+1Jw TwM5/L6Cl6DGN2eee/ufagBc5GeW78/xf/WpvXp9dx/nTs5GeW78/wAX/wBam9en13H+dAC/d4xj HOT29z70p9fT17e5pPu8YxjnJ7e596U+vp69vc0ANxnjke/f/wDXS5x2244yP4fYe9JjPHI9+/8A +ulzjttxxkfw+w96AA8e3bj+H/69IBnoMdsDv7Up49u3H8P/ANekAz0GO2B39qAFzzjnnjjv7D2o OPz9O/sKM8455447+w9qDj8/Tv7CgBAM84GPQdD/APWpQcnp155/i9z7UgGecDHoOh/+tSg5PTrz z/F7n2oADj69/wDe/wDrUAfxfj9Peg4+vf8A3v8A61AH8X4/T3oAAfw74Pb3PvSEgfhzz/M0oP4d 8Ht7n3pCQPw55/maAFA288+n09vrSg9unbj+H2HvSAbeefT6e31pQe3Ttx/D7D3oAacZ+77Y9Pb6 0uMdi2fTv7D2pDjP3fbHp7fWlxjsWz6d/Ye1AC5yPX6d/YU3gngZz+X0FOzkev07+wpvBPAzn8vo KAF6DGN2eee/ufalzkZ5bvz/ABf/AFqToMY3Z557+59qXORnlu/P8X/1qAG9en13H+dL93jGMc5P b3PvSden13H+dL93jGMc5Pb3PvQAp9fT17e5puM8cj37/wD66cfX09e3uabjPHI9+/8A+ugBc47b ccZH8PsPeg8e3bj+H/69GcdtuOMj+H2HvQePbtx/D/8AXoAQDPQY7YHf2pc8455447+w9qQDPQY7 YHf2pc8455447+w9qAA4/P07+wpAM84GPQdD/wDWpTj8/Tv7CkAzzgY9B0P/ANagBQcnp155/i9z 7UHH17/73/1qAcnp155/i9z7UHH17/73/wBagAA/i/H6e9AP4d8Ht7n3oA/i/H6e9AP4d8Ht7n3o AQkD8Oef5mlA288+n09vrSEgfhzz/M0oG3nn0+nt9aAFB7dO3H8PsPemnGfu+2PT2+tOB7dO3H8P sPemnGfu+2PT2+tAC4x2LZ9O/sPalzkev07+wpMY7Fs+nf2HtS5yPX6d/YUAN4J4Gc/l9BS9BjG7 PPPf3PtScE8DOfy+gpegxjdnnnv7n2oAXORnlu/P8X/1qb16fXcf507ORnlu/P8AF/8AWpvXp9dx /nQAv3eMYxzk9vc+9KfX09e3uaT7vGMY5ye3ufelPr6evb3NADcZ45Hv3/8A10ucdtuOMj+H2HvS YzxyPfv/APrpc47bccZH8PsPegAPHt24/h/+vSAZ6DHbA7+1KePbtx/D/wDXpAM9Bjtgd/agBc84 55447+w9qDj8/Tv7CjPOOeeOO/sPag4/P07+woAQDPOBj0HQ/wD1qUHJ6deef4vc+1IBnnAx6Dof /rUoOT0688/xe59qAA4+vf8A3v8A61AH8X4/T3oOPr3/AN7/AOtQB/F+P096AAH8O+D29z70hIH4 c8/zNKD+HfB7e596QkD8Oef5mgBQNvPPp9Pb60oPbp24/h9h70gG3nn0+nt9aUHt07cfw+w96AGn Gfu+2PT2+tLjHYtn07+w9qQ4z932x6e31pcY7Fs+nf2HtQAucj1+nf2FN4J4Gc/l9BTs5Hr9O/sK bwTwM5/L6CgBegxjdnnnv7n2pR82PnYZ5yByf/rUnQYxuzzz39z7Uo+bHzsM85A5P/1qAE6DGN2e ee/ufalzkZ5bvz/F/wDWpOgxjdnnnv7n2pc5GeW78/xf/WoAb16fXcf50v3eMYxzk9vc+9J16fXc f50v3eMYxzk9vc+9ACn19PXt7mm4zxyPfv8A/rpx9fT17e5puM8cj37/AP66AFzjttxxkfw+w96D x7duP4f/AK9GcdtuOMj+H2HvQePbtx/D/wDXoAQDPQY7YHf2pc8455447+w9qQDPQY7YHf2pc845 5447+w9qAA4/P07+wpAM84GPQdD/APWpTj8/Tv7CkAzzgY9B0P8A9agBQcnp155/i9z7UHH17/73 /wBagHJ6deef4vc+1Bx9e/8Avf8A1qAAD+L8fp70A/h3we3ufegD+L8fp70A/h3we3ufegBCQPw5 5/maUDbzz6fT2+tISB+HPP8AM0oG3nn0+nt9aAFB7dO3H8PsPemnGfu+2PT2+tOB7dO3H8PsPemn Gfu+2PT2+tAC4x2LZ9O/sPalzkev07+wpMY7Fs+nf2HtS5yPX6d/YUAN4J4Gc/l9BS9BjG7PPPf3 PtScE8DOfy+gpegxjdnnnv7n2oAXORnlu/P8X/1qb16fXcf507ORnlu/P8X/ANam9en13H+dAC/d 4xjHOT29z70p9fT17e5pPu8YxjnJ7e596U+vp69vc0ANxnjke/f/APXS5x2244yP4fYe9JjPHI9+ /wD+ulzjttxxkfw+w96AA8e3bj+H/wCvSAZ6DHbA7+1KePbtx/D/APXpAM9Bjtgd/agBc8455447 +w9qDj8/Tv7CjPOOeeOO/sPag4/P07+woAQDPOBj0HQ//WpQcnp155/i9z7UgGecDHoOh/8ArUoO T0688/xe59qAA4+vf/e/+tQB/F+P096Dj69/97/61AH8X4/T3oAAfw74Pb3PvSEgfhzz/M0oP4d8 Ht7n3pCQPw55/maAFA288+n09vrSg9unbj+H2HvSAbeefT6e31pQe3Ttx/D7D3oAacZ+77Y9Pb60 uMdi2fTv7D2pDjP3fbHp7fWlxjsWz6d/Ye1AC5yPX6d/YU3gngZz+X0FOzkev07+wpvBPAzn8voK AF6DGN2eee/ufalzkZ5bvz/F/wDWpOgxjdnnnv7n2pc5GeW78/xf/WoAb16fXcf50v3eMYxzk9vc +9J16fXcf50v3eMYxzk9vc+9ACn19PXt7mm4zxyPfv8A/rpx9fT17e5puM8cj37/AP66AFzjttxx kfw+w96Dx7duP4f/AK9GcdtuOMj+H2HvQePbtx/D/wDXoAQDPQY7YHf2pc8455447+w9qQDPQY7Y Hf2pc8455447+w9qAA4/P07+wpAM84GPQdD/APWpTj8/Tv7CkAzzgY9B0P8A9agBQcnp155/i9z7 UHH17/73/wBagHJ6deef4vc+1Bx9e/8Avf8A1qAAD+L8fp70A/h3we3ufegD+L8fp70A/h3we3uf egBCQPw55/maUDbzz6fT2+tISB+HPP8AM0oG3nn0+nt9aAFB7dO3H8PsPemnGfu+2PT2+tOB7dO3 H8PsPemnGfu+2PT2+tAC4x2LZ9O/sPalzkev07+wpMY7Fs+nf2HtS5yPX6d/YUAN4J4Gc/l9BS9B jG7PPPf3PtScE8DOfy+gpegxjdnnnv7n2oAXORnlu/P8X/1qb16fXcf507ORnlu/P8X/ANam9en1 3H+dAC/d4xjHOT29z70p9fT17e5pPu8YxjnJ7e596U+vp69vc0ANxnjke/f/APXS5x2244yP4fYe 9JjPHI9+/wD+ulzjttxxkfw+w96AA8e3bj+H/wCvSAZ6DHbA7+1KePbtx/D/APXpAM9Bjtgd/agB c8455447+w9qDj8/Tv7CjPOOeeOO/sPag4/P07+woAQDPOBj0HQ//WpQcnp155/i9z7UgGecDHoO h/8ArUoOT0688/xe59qAA4+vf/e/+tQB/F+P096Dj69/97/61AH8X4/T3oAAfw74Pb3PvSEgfhzz /M0oP4d8Ht7n3pCQPw55/maAFA288+n09vrSg9unbj+H2HvSAbeefT6e31pQe3Ttx/D7D3oAacZ+ 77Y9Pb60uMdi2fTv7D2pDjP3fbHp7fWlxjsWz6d/Ye1AC5yPX6d/YU3gngZz+X0FOzkev07+wpvB PAzn8voKAF6DGN2eee/ufalHzY+dhnnIHJ/+tSdBjG7PPPf3PtSj5sfOwzzkDk//AFqAE6DGN2ee e/ufalzkZ5bvz/F/9ak6DGN2eee/ufalzkZ5bvz/ABf/AFqAG9en13H+dL93jGMc5Pb3PvSden13 H+dL93jGMc5Pb3PvQAp9fT17e5puM8cj37//AK6cfX09e3uabjPHI9+//wCugBc47bccZH8PsPeg 8e3bj+H/AOvRnHbbjjI/h9h70Hj27cfw/wD16AEAz0GO2B39qXPOOeeOO/sPakAz0GO2B39qXPOO eeOO/sPagAOPz9O/sKQDPOBj0HQ//WpTj8/Tv7CkAzzgY9B0P/1qAFByenXnn+L3PtQcfXv/AL3/ ANagHJ6deef4vc+1Bx9e/wDvf/WoAAP4vx+nvQD+HfB7e596AP4vx+nvQD+HfB7e596AEJA/Dnn+ ZpQNvPPp9Pb60hIH4c8/zNKBt559Pp7fWgBQe3Ttx/D7D3ppxn7vtj09vrTge3Ttx/D7D3ppxn7v tj09vrQAuMdi2fTv7D2pc5Hr9O/sKTGOxbPp39h7Uucj1+nf2FADeCeBnP5fQUvQYxuzzz39z7Un BPAzn8voKXoMY3Z557+59qAFzkZ5bvz/ABf/AFqb16fXcf507ORnlu/P8X/1qb16fXcf50AL93jG Mc5Pb3PvSn19PXt7mk+7xjGOcnt7n3pT6+nr29zQA3GeOR79/wD9dLnHbbjjI/h9h70mM8cj37// AK6XOO23HGR/D7D3oADx7duP4f8A69IBnoMdsDv7Up49u3H8P/16QDPQY7YHf2oAXPOOeeOO/sPa g4/P07+wozzjnnjjv7D2oOPz9O/sKAEAzzgY9B0P/wBalByenXnn+L3PtSAZ5wMeg6H/AOtSg5PT rzz/ABe59qAA4+vf/e/+tQB/F+P096Dj69/97/61AH8X4/T3oAAfw74Pb3PvSEgfhzz/ADNKD+Hf B7e596QkD8Oef5mgBQNvPPp9Pb60oPbp24/h9h70gG3nn0+nt9aUHt07cfw+w96AGnGfu+2PT2+t LjHYtn07+w9qQ4z932x6e31pcY7Fs+nf2HtQAucj1+nf2FN4J4Gc/l9BTs5Hr9O/sKbwTwM5/L6C gBegxjdnnnv7n2pc5GeW78/xf/WpOgxjdnnnv7n2pc5GeW78/wAX/wBagBvXp9dx/nS/d4xjHOT2 9z70nXp9dx/nS/d4xjHOT29z70AKfX09e3uabjPHI9+//wCunH19PXt7mm4zxyPfv/8AroAXOO23 HGR/D7D3oPHt24/h/wDr0Zx2244yP4fYe9B49u3H8P8A9egBAM9Bjtgd/alzzjnnjjv7D2pAM9Bj tgd/alzzjnnjjv7D2oADj8/Tv7CkAzzgY9B0P/1qU4/P07+wpAM84GPQdD/9agBQcnp155/i9z7U HH17/wC9/wDWoByenXnn+L3PtQcfXv8A73/1qAAD+L8fp70A/h3we3ufegD+L8fp70A/h3we3ufe gBCQPw55/maUDbzz6fT2+tISB+HPP8zSgbeefT6e31oAUHt07cfw+w96acZ+77Y9Pb604Ht07cfw +w96acZ+77Y9Pb60ALjHYtn07+w9qXOR6/Tv7CkxjsWz6d/Ye1LnI9fp39hQA3gngZz+X0FL0GMb s889/c+1JwTwM5/L6Cl6DGN2eee/ufagBc5GeW78/wAX/wBam9en13H+dOzkZ5bvz/F/9am9en13 H+dAC/d4xjHOT29z70p9fT17e5pPu8YxjnJ7e596U+vp69vc0ANxnjke/f8A/XS5x2244yP4fYe9 JjPHI9+//wCulzjttxxkfw+w96AA8e3bj+H/AOvSAZ6DHbA7+1KePbtx/D/9ekAz0GO2B39qAFzz jnnjjv7D2oOPz9O/sKM8455447+w9qDj8/Tv7CgBAM84GPQdD/8AWpQcnp155/i9z7UgGecDHoOh /wDrUoOT0688/wAXufagAOPr3/3v/rUAfxfj9Peg4+vf/e/+tQB/F+P096AAH8O+D29z70hIH4c8 /wAzSg/h3we3ufekJA/Dnn+ZoAUDbzz6fT2+tKD26duP4fYe9IBt559Pp7fWlB7dO3H8PsPegBpx n7vtj09vrS4x2LZ9O/sPakOM/d9sent9aXGOxbPp39h7UALnI9fp39hTeCeBnP5fQU7OR6/Tv7Cm 8E8DOfy+goAXoMY3Z557+59qUfNj52Gecgcn/wCtSdBjG7PPPf3PtSj5sfOwzzkDk/8A1qAE6DGN 2eee/ufalzkZ5bvz/F/9ak6DGN2eee/ufalzkZ5bvz/F/wDWoAb16fXcf50v3eMYxzk9vc+9J16f Xcf50v3eMYxzk9vc+9ACn19PXt7mm4zxyPfv/wDrpx9fT17e5puM8cj37/8A66AFzjttxxkfw+w9 6Dx7duP4f/r0Zx2244yP4fYe9B49u3H8P/16AEAz0GO2B39qXPOOeeOO/sPakAz0GO2B39qXPOOe eOO/sPagAOPz9O/sKQDPOBj0HQ//AFqU4/P07+wpAM84GPQdD/8AWoAUHJ6deef4vc+1Bx9e/wDv f/WoByenXnn+L3PtQcfXv/vf/WoAAP4vx+nvQD+HfB7e596AP4vx+nvQD+HfB7e596AEJA/Dnn+Z pQNvPPp9Pb60hIH4c8/zNKBt559Pp7fWgBQe3Ttx/D7D3ppxn7vtj09vrTge3Ttx/D7D3ppxn7vt j09vrQAuMdi2fTv7D2pc5Hr9O/sKTGOxbPp39h7Uucj1+nf2FADeCeBnP5fQUvQYxuzzz39z7UnB PAzn8voKXoMY3Z557+59qAFzkZ5bvz/F/wDWpvXp9dx/nTs5GeW78/xf/WpvXp9dx/nQAv3eMYxz k9vc+9KfX09e3uaT7vGMY5ye3ufelPr6evb3NADcZ45Hv3//AF0ucdtuOMj+H2HvSYzxyPfv/wDr pc47bccZH8PsPegAPHt24/h/+vSAZ6DHbA7+1KePbtx/D/8AXpAM9Bjtgd/agBc8455447+w9qDj 8/Tv7CjPOOeeOO/sPag4/P07+woAQDPOBj0HQ/8A1qUHJ6deef4vc+1IBnnAx6Dof/rUoOT0688/ xe59qAA4+vf/AHv/AK1AH8X4/T3oOPr3/wB7/wCtQB/F+P096AAH8O+D29z70hIH4c8/zNKD+HfB 7e596QkD8Oef5mgBQNvPPp9Pb60oPbp24/h9h70gG3nn0+nt9aUHt07cfw+w96AGnGfu+2PT2+tL jHYtn07+w9qQ4z932x6e31pcY7Fs+nf2HtQAucj1+nf2FN4J4Gc/l9BTs5Hr9O/sKbwTwM5/L6Cg Begxjdnnnv7n2pc5GeW78/xf/WpOgxjdnnnv7n2pc5GeW78/xf8A1qAG9en13H+dL93jGMc5Pb3P vSden13H+dL93jGMc5Pb3PvQAp9fT17e5puM8cj37/8A66cfX09e3uabjPHI9+//AOugBc47bccZ H8PsPeg8e3bj+H/69GcdtuOMj+H2HvQePbtx/D/9egBAM9Bjtgd/alzzjnnjjv7D2pAM9Bjtgd/a lzzjnnjjv7D2oADj8/Tv7CkAzzgY9B0P/wBalOPz9O/sKQDPOBj0HQ//AFqAFByenXnn+L3PtQcf Xv8A73/1qAcnp155/i9z7UHH17/73/1qAAD+L8fp70A/h3we3ufegD+L8fp70A/h3we3ufegBCQP w55/maUDbzz6fT2+tISB+HPP8zSgbeefT6e31oAUHt07cfw+w96acZ+77Y9Pb604Ht07cfw+w96a cZ+77Y9Pb60ALjHYtn07+w9qXOR6/Tv7CkxjsWz6d/Ye1LnI9fp39hQA3gngZz+X0FL0GMbs889/ c+1JwTwM5/L6Cl6DGN2eee/ufagBc5GeW78/xf8A1qb16fXcf507ORnlu/P8X/1qb16fXcf50AL9 3jGMc5Pb3PvSn19PXt7mk+7xjGOcnt7n3pT6+nr29zQA3GeOR79//wBdLnHbbjjI/h9h70mM8cj3 7/8A66XOO23HGR/D7D3oADx7duP4f/r0gGegx2wO/tSnj27cfw//AF6QDPQY7YHf2oAXPOOeeOO/ sPag4/P07+wozzjnnjjv7D2oOPz9O/sKAEAzzgY9B0P/ANalByenXnn+L3PtSAZ5wMeg6H/61KDk 9OvPP8XufagAOPr3/wB7/wCtQB/F+P096Dj69/8Ae/8ArUAfxfj9PegAB/Dvg9vc+9ISB+HPP8zS g/h3we3ufekJA/Dnn+ZoAUDbzz6fT2+tKD26duP4fYe9IBt559Pp7fWlB7dO3H8PsPegBpxn7vtj 09vrS4x2LZ9O/sPakOM/d9sent9aXGOxbPp39h7UALnI9fp39hTeCeBnP5fQU7OR6/Tv7Cm8E8DO fy+goAXoMY3Z557+59qUfNj52Gecgcn/AOtSdBjG7PPPf3PtSj5sfOwzzkDk/wD1qAE6DGN2eee/ ufalzkZ5bvz/ABf/AFqKKAG9en13H+dL93jGMc5Pb3PvRRQAp9fT17e5puM8cj37/wD66KKAFzjt txxkfw+w96Dx7duP4f8A69FFACAZ6DHbA7+1LnnHPPHHf2HtRRQAHH5+nf2FIBnnAx6Dof8A61FF ACg5PTrzz/F7n2oOPr3/AN7/AOtRRQAAfxfj9PegH8O+D29z70UUAISB+HPP8zSgbeefT6e31ooo AUHt07cfw+w96acZ+77Y9Pb60UUALjHYtn07+w9qXOR6/Tv7CiigBvBPAzn8voKXoMY3Z557+59q KKAFzkZ5bvz/ABf/AFqb16fXcf50UUAL93jGMc5Pb3PvSn19PXt7miigBuM8cj37/wD66XOO23HG R/D7D3oooADx7duP4f8A69IBnoMdsDv7UUUALnnHPPHHf2HtQcfn6d/YUUUAIBnnAx6Dof8A61KD k9OvPP8AF7n2oooADj69/wDe/wDrUAfxfj9PeiigAB/Dvg9vc+9ISB+HPP8AM0UUAKBt559Pp7fW lB7dO3H8PsPeiigBpxn7vtj09vrS4x2LZ9O/sPaiigBc5Hr9O/sKbwTwM5/L6CiigBegxjdnnnv7 n2pc5GeW78/xf/WoooAb16fXcf50v3eMYxzk9vc+9FFACn19PXt7mm4zxyPfv/8AroooAXOO23HG R/D7D3oPHt24/h/+vRRQAgGegx2wO/tS55xzzxx39h7UUUABx+fp39hSAZ5wMeg6H/61FFACg5PT rzz/ABe59qDj69/97/61FFAAB/F+P096Afw74Pb3PvRRQAhIH4c8/wAzSgbeefT6e31oooAUHt07 cfw+w96acZ+77Y9Pb60UUALjHYtn07+w9qXOR6/Tv7CiigBvBPAzn8voKXoMY3Z557+59qKKAFzk Z5bvz/F/9am9en13H+dFFAC/d4xjHOT29z70p9fT17e5oooAbjPHI9+//wCulzjttxxkfw+w96KK AA8e3bj+H/69IBnoMdsDv7UUUALnnHPPHHf2HtQcfn6d/YUUUAIBnnAx6Dof/rUoOT0688/xe59q KKAA4+vf/e/+tQB/F+P096KKAAH8O+D29z70hIH4c8/zNFFACgbeefT6e31pQe3Ttx/D7D3oooAa cZ+77Y9Pb60uMdi2fTv7D2oooAXOR6/Tv7Cm8E8DOfy+goooAXoMY3Z557+59qUfNj52Gecgcn/6 1FFAH//Z "
     x="0"
     y="0"
     width="750"
     height="120"
     id="image10" />
  <switch
     id="switch6">
    <g
       systemLanguage="bg"
       id="g8">
      <text
         x="355.85135"
         y="51.587837"
         id="text2987"
         xml:space="preserve"
         style="font-size:36px;font-style:normal;font-variant:normal;font-weight:normal;font-stretch:normal;line-height:125%;letter-spacing:0px;word-spacing:0px;fill:#000000;fill-opacity:1;stroke:none;font-family:Comfortaa;-inkscape-font-specification:Comfortaa"><tspan
           x="355.85135"
           y="51.587837"
           id="tspan2989">ask.fedoraproject.org</tspan></text>
      <text
         x="56.540543"
         y="65.945946"
         id="text2991"
         xml:space="preserve"
         style="font-size:20px;font-style:normal;font-variant:normal;font-weight:normal;font-stretch:normal;line-height:125%;letter-spacing:0px;word-spacing:0px;fill:#000000;fill-opacity:1;stroke:none;font-family:Cantarell;-inkscape-font-specification:Cantarell"
         sodipodi:linespacing="125%"><tspan
           x="56.540543"
           y="65.945946"
           id="tspan2993"
           >Имате въпрос?</tspan></text>
      <text
         x="154.91891"
         y="100.57432"
         id="text2995"
         xml:space="preserve"
         style="font-size:28px;font-style:normal;font-variant:normal;font-weight:normal;font-stretch:normal;line-height:125%;letter-spacing:0px;word-spacing:0px;fill:#000000;fill-opacity:1;stroke:none;font-family:Cantarell;-inkscape-font-specification:Cantarell"><tspan
           x="154.91891"
           y="100.57432"
           id="tspan2997">Ние имаме отговори.</tspan></text>
    </g>
    <g
       systemLanguage="de"
       id="g44">
      <text
         x="355.85135"
         y="51.587837"
         id="text74"
         xml:space="preserve"
         style="font-size:36px;font-style:normal;font-variant:normal;font-weight:normal;font-stretch:normal;line-height:125%;letter-spacing:0px;word-spacing:0px;fill:#000000;fill-opacity:1;stroke:none;font-family:Comfortaa;-inkscape-font-specification:Comfortaa"><tspan
           x="355.85135"
           y="51.587837"
           id="tspan76">ask.fedoraproject.org</tspan></text>
      <text
         x="56.540543"
         y="65.945946"
         id="text50"
         xml:space="preserve"
         style="font-size:20px;font-style:normal;font-variant:normal;font-weight:normal;font-stretch:normal;line-height:125%;letter-spacing:0px;word-spacing:0px;fill:#000000;fill-opacity:1;stroke:none;font-family:Comfortaa;-inkscape-font-specification:Comfortaa"
         sodipodi:linespacing="125%"><tspan
           x="56.540543"
           y="65.945946"
           id="tspan52">Noch Fragen?</tspan></text>
      <text
         x="154.91891"
         y="100.57432"
         id="text54"
         xml:space="preserve"
         style="font-size:28px;font-style:normal;font-variant:normal;font-weight:normal;font-stretch:normal;line-height:125%;letter-spacing:0px;word-spacing:0px;fill:#000000;fill-opacity:1;stroke:none;font-family:Comfortaa;-inkscape-font-specification:Comfortaa"
         sodipodi:linespacing="125%"><tspan
           x="154.91891"
           y="100.57432"
           id="tspan56">Wir haben Antworten.</tspan></text>
    </g>
    <g
       systemLanguage="es"
       id="g8">
      <text
         x="355.85135"
         y="51.587837"
         id="text2987"
         xml:space="preserve"
         style="font-size:36px;font-style:normal;font-variant:normal;font-weight:normal;font-stretch:normal;line-height:125%;letter-spacing:0px;word-spacing:0px;fill:#000000;fill-opacity:1;stroke:none;font-family:Comfortaa;-inkscape-font-specification:Comfortaa"><tspan
           x="355.85135"
           y="51.587837"
           id="tspan2989">ask.fedoraproject.org</tspan></text>
      <text
         x="56.540543"
         y="65.945946"
         id="text2991"
         xml:space="preserve"
         style="font-size:20px;font-style:normal;font-variant:normal;font-weight:normal;font-stretch:normal;line-height:125%;letter-spacing:0px;word-spacing:0px;fill:#000000;fill-opacity:1;stroke:none;font-family:Comfortaa;-inkscape-font-specification:Comfortaa"
         sodipodi:linespacing="125%"><tspan
           x="56.540543"
           y="65.945946"
           id="tspan2993"
           dy="-4.8000002 4.8000002">¿Tiene un pregunta?</tspan></text>
      <text
         x="154.91891"
         y="100.57432"
         id="text2995"
         xml:space="preserve"
         style="font-size:28px;font-style:normal;font-variant:normal;font-weight:normal;font-stretch:normal;line-height:125%;letter-spacing:0px;word-spacing:0px;fill:#000000;fill-opacity:1;stroke:none;font-family:Comfortaa;-inkscape-font-specification:Comfortaa"><tspan
           x="154.91891"
           y="100.57432"
           id="tspan2997">Tenemos las respuestas.</tspan></text>
    </g>
    <g
       systemLanguage="fr"
       id="g16">
      <text
         x="355.85135"
         y="51.587837"
         id="text18"
         xml:space="preserve"
         style="font-size:36px;font-style:normal;font-variant:normal;font-weight:normal;font-stretch:normal;line-height:125%;letter-spacing:0px;word-spacing:0px;fill:#000000;fill-opacity:1;stroke:none;font-family:Comfortaa;-inkscape-font-specification:Comfortaa"><tspan
           x="355.85135"
           y="51.587837"
           id="tspan20">ask.fedoraproject.org</tspan></text>
      <text
         x="56.540543"
         y="65.945946"
         id="text22"
         xml:space="preserve"
         style="font-size:20px;font-style:normal;font-variant:normal;font-weight:normal;font-stretch:normal;line-height:125%;letter-spacing:0px;word-spacing:0px;fill:#000000;fill-opacity:1;stroke:none;font-family:Comfortaa;-inkscape-font-specification:Comfortaa"><tspan
           x="56.540543"
           y="65.945946"
           id="tspan24">Vous avez une question ?</tspan></text>
      <text
         x="154.91891"
         y="100.57432"
         id="text26"
         xml:space="preserve"
         style="font-size:28px;font-style:normal;font-variant:normal;font-weight:normal;font-stretch:normal;line-height:125%;letter-spacing:0px;word-spacing:0px;fill:#000000;fill-opacity:1;stroke:none;font-family:Comfortaa;-inkscape-font-specification:Comfortaa"><tspan
           x="154.91891"
           y="100.57432"
           id="tspan28">Nous avons les réponses.</tspan></text>
    </g>
    <g
       systemLanguage="hr"
       id="g60">
      <text
         x="355.85135"
         y="51.587837"
         id="text46"
         xml:space="preserve"
         style="font-size:36px;font-style:normal;font-variant:normal;font-weight:normal;font-stretch:normal;line-height:125%;letter-spacing:0px;word-spacing:0px;fill:#000000;fill-opacity:1;stroke:none;font-family:Comfortaa;-inkscape-font-specification:Comfortaa"><tspan
           x="355.85135"
           y="51.587837"
           id="tspan48">ask.fedoraproject.org</tspan></text>
      <text
         x="56.540543"
         y="65.945946"
         id="text50"
         xml:space="preserve"
         style="font-size:20px;font-style:normal;font-variant:normal;font-weight:normal;font-stretch:normal;line-height:125%;letter-spacing:0px;word-spacing:0px;fill:#000000;fill-opacity:1;stroke:none;font-family:Comfortaa;-inkscape-font-specification:Comfortaa"><tspan
           x="56.540543"
           y="65.945946"
           id="tspan52">Imate pitanja?</tspan></text>
      <text
         x="154.91891"
         y="100.57432"
         id="text54"
         xml:space="preserve"
         style="font-size:28px;font-style:normal;font-variant:normal;font-weight:normal;font-stretch:normal;line-height:125%;letter-spacing:0px;word-spacing:0px;fill:#000000;fill-opacity:1;stroke:none;font-family:Comfortaa;-inkscape-font-specification:Comfortaa"><tspan
           x="154.91891"
           y="100.57432"
           id="tspan56">Mi imamo odgovore.</tspan></text>
    </g>
    <g
       systemLanguage="ja"
       id="g16">
  <text
     x="355.85135"
     y="51.587837"
     id="text2987"
     xml:space="preserve"
     style="font-size:36px;font-style:normal;font-variant:normal;font-weight:normal;font-stretch:normal;line-height:125%;letter-spacing:0px;word-spacing:0px;fill:#000000;fill-opacity:1;stroke:none;font-family:Comfortaa;-inkscape-font-specification:Comfortaa"><tspan
       x="355.85135"
       y="51.587837"
       id="tspan2989">ask.fedoraproject.org</tspan></text>
  <text
     x="30.332153"
     y="60.841751"
     id="text2991"
     xml:space="preserve"
     style="font-size:20px;font-style:normal;font-variant:normal;font-weight:normal;font-stretch:normal;line-height:125%;letter-spacing:0px;word-spacing:0px;fill:#000000;fill-opacity:1;stroke:none;font-family:Comfortaa;-inkscape-font-specification:Comfortaa"
     sodipodi:linespacing="125%"><tspan
       x="30.332153"
       y="60.841751"
       id="tspan2993">何か分からないことがありますか？</tspan></text>
  <text
     x="154.91891"
     y="96.574318"
     id="text2995"
     xml:space="preserve"
     style="font-size:28px;font-style:normal;font-variant:normal;font-weight:normal;font-stretch:normal;line-height:125%;letter-spacing:0px;word-spacing:0px;fill:#000000;fill-opacity:1;stroke:none;font-family:Comfortaa;-inkscape-font-specification:Comfortaa"
     sodipodi:linespacing="125%"><tspan
       x="154.91891"
       y="96.574318"
       id="tspan2997">私達がお答えします。</tspan></text>
    </g>
    <g
       systemLanguage="uk"
       id="g16">
      <text
         x="355.85135"
         y="51.587837"
         id="text18"
         xml:space="preserve"
         style="font-size:36px;font-style:normal;font-variant:normal;font-weight:normal;font-stretch:normal;line-height:125%;letter-spacing:0px;word-spacing:0px;fill:#000000;fill-opacity:1;stroke:none;font-family:Comfortaa;-inkscape-font-specification:Comfortaa"><tspan
           x="355.85135"
           y="51.587837"
           id="tspan20">ask.fedoraproject.org</tspan></text>
      <text
         x="56.540543"
         y="65.945946"
         id="text22"
         xml:space="preserve"
         style="font-size:20px;font-style:normal;font-variant:normal;font-weight:normal;font-stretch:normal;line-height:125%;letter-spacing:0px;word-spacing:0px;fill:#000000;fill-opacity:1;stroke:none;font-family:Cantarell;-inkscape-font-specification:Cantarell"><tspan
           x="56.540543"
           y="65.945946"
           id="tspan24">Маєте питання?</tspan></text>
      <text
         x="154.91891"
         y="100.57432"
         id="text26"
         xml:space="preserve"
         style="font-size:28px;font-style:normal;font-variant:normal;font-weight:normal;font-stretch:normal;line-height:125%;letter-spacing:0px;word-spacing:0px;fill:#000000;fill-opacity:1;stroke:none;font-family:Cantarell;-inkscape-font-specification:Cantarell"><tspan
           x="154.91891"
           y="100.57432"
           id="tspan28">У нас є відповіді на них.</tspan></text>
    </g>
    <g
       systemLanguage="zh_CN"
       id="g30">
      <text
     x="355.85135"
     y="51.587837"
     id="text2987"
     xml:space="preserve"
     style="font-size:36px;font-style:normal;font-variant:normal;font-weight:normal;font-stretch:normal;line-height:125%;letter-spacing:0px;word-spacing:0px;fill:#000000;fill-opacity:1;stroke:none;font-family:Comfortaa;-inkscape-font-specification:Comfortaa"><tspan
       x="355.85135"
       y="51.587837"
       id="tspan2989">ask.fedoraproject.org</tspan></text>
  <text
     x="56.540543"
     y="65.945946"
     id="text2991"
     xml:space="preserve"
     style="font-size:20px;font-style:normal;font-variant:normal;font-weight:normal;font-stretch:normal;line-height:125%;letter-spacing:0px;word-spacing:0px;fill:#000000;fill-opacity:1;stroke:none;font-family:Comfortaa;-inkscape-font-specification:Comfortaa"><tspan
       x="56.540543"
       y="65.945946"
       id="tspan2993">有什么疑问吗？</tspan></text>
  <text
     x="154.91891"
     y="100.57432"
     id="text2995"
     xml:space="preserve"
     style="font-size:28px;font-style:normal;font-variant:normal;font-weight:normal;font-stretch:normal;line-height:125%;letter-spacing:0px;word-spacing:0px;fill:#000000;fill-opacity:1;stroke:none;font-family:Comfortaa;-inkscape-font-specification:Comfortaa"><tspan
       x="154.91891"
       y="100.57432"
       id="tspan2997">我想我们有答案。</tspan></text>
    </g>
    <g
       systemLanguage="zh_TW"
       id="g30">
      <text
         x="355.85135"
         y="51.587837"
         id="text32"
         xml:space="preserve"
         style="font-size:36px;font-style:normal;font-variant:normal;font-weight:normal;font-stretch:normal;line-height:125%;letter-spacing:0px;word-spacing:0px;fill:#000000;fill-opacity:1;stroke:none;font-family:Comfortaa;-inkscape-font-specification:Comfortaa"><tspan
           x="355.85135"
           y="51.587837"
           id="tspan34">ask.fedoraproject.org</tspan></text>
      <text
         x="56.540543"
         y="65.945946"
         id="text36"
         xml:space="preserve"
         style="font-size:20px;font-style:normal;font-variant:normal;font-weight:normal;font-stretch:normal;line-height:125%;letter-spacing:0px;word-spacing:0px;fill:#000000;fill-opacity:1;stroke:none;font-family:Comfortaa;-inkscape-font-specification:Comfortaa"><tspan
           x="56.540543"
           y="65.945946"
           id="tspan38"
           style="-inkscape-font-specification:cwTeX Q Yuan Medium;font-family:cwTeX Q Yuan;font-weight:500;font-style:normal;font-stretch:normal;font-variant:normal">有什麼疑問嗎？</tspan></text>
      <text
         x="154.91891"
         y="100.57432"
         id="text40"
         xml:space="preserve"
         style="font-size:28px;font-style:normal;font-variant:normal;font-weight:normal;font-stretch:normal;line-height:125%;letter-spacing:0px;word-spacing:0px;fill:#000000;fill-opacity:1;stroke:none;font-family:Comfortaa;-inkscape-font-specification:Comfortaa"><tspan
           x="154.91891"
           y="100.57432"
           id="tspan42"
           style="-inkscape-font-specification:cwTeX Q Yuan Medium;font-family:cwTeX Q Yuan;font-weight:500;font-style:normal;font-stretch:normal;font-variant:normal">我想我們有答案。</tspan></text>
    </g>
    <g
       id="g44">
      <text
         x="355.85135"
         y="51.587837"
         id="text46"
         xml:space="preserve"
         style="font-size:36px;font-style:normal;font-variant:normal;font-weight:normal;font-stretch:normal;line-height:125%;letter-spacing:0px;word-spacing:0px;fill:#000000;fill-opacity:1;stroke:none;font-family:Comfortaa;-inkscape-font-specification:Comfortaa"><tspan
           x="355.85135"
           y="51.587837"
           id="tspan48">ask.fedoraproject.org</tspan></text>
      <text
         x="56.540543"
         y="65.945946"
         id="text50"
         xml:space="preserve"
         style="font-size:20px;font-style:normal;font-variant:normal;font-weight:normal;font-stretch:normal;line-height:125%;letter-spacing:0px;word-spacing:0px;fill:#000000;fill-opacity:1;stroke:none;font-family:Comfortaa;-inkscape-font-specification:Comfortaa"><tspan
           x="56.540543"
           y="65.945946"
           id="tspan52">Have a Question?</tspan></text>
      <text
         x="154.91891"
         y="100.57432"
         id="text54"
         xml:space="preserve"
         style="font-size:28px;font-style:normal;font-variant:normal;font-weight:normal;font-stretch:normal;line-height:125%;letter-spacing:0px;word-spacing:0px;fill:#000000;fill-opacity:1;stroke:none;font-family:Comfortaa;-inkscape-font-specification:Comfortaa"><tspan
           x="154.91891"
           y="100.57432"
           id="tspan56">We have Answers.</tspan></text>
    </g>
  </switch>
</svg>
