<?xml version="1.0" encoding="UTF-8" standalone="no"?>
<!-- Created with Inkscape (http://www.inkscape.org/) -->

<svg
   xmlns:dc="http://purl.org/dc/elements/1.1/"
   xmlns:cc="http://creativecommons.org/ns#"
   xmlns:rdf="http://www.w3.org/1999/02/22-rdf-syntax-ns#"
   xmlns:svg="http://www.w3.org/2000/svg"
   xmlns="http://www.w3.org/2000/svg"
   xmlns:xlink="http://www.w3.org/1999/xlink"
   xmlns:sodipodi="http://sodipodi.sourceforge.net/DTD/sodipodi-0.dtd"
   xmlns:inkscape="http://www.inkscape.org/namespaces/inkscape"
   version="1.1"
   width="750"
   height="120"
   id="svg2"
   inkscape:version="0.48.4 r9939"
   sodipodi:docname="Make-Fedora-Better.svg">
  <sodipodi:namedview
     pagecolor="#ffffff"
     bordercolor="#666666"
     borderopacity="1"
     objecttolerance="10"
     gridtolerance="10"
     guidetolerance="10"
     inkscape:pageopacity="0"
     inkscape:pageshadow="2"
     inkscape:window-width="1600"
     inkscape:window-height="880"
     id="namedview38"
     showgrid="false"
     inkscape:zoom="3.3488577"
     inkscape:cx="212.20921"
     inkscape:cy="69.178856"
     inkscape:window-x="-2"
     inkscape:window-y="-3"
     inkscape:window-maximized="1"
     inkscape:current-layer="svg2" />
  <metadata
     id="metadata8">
    <rdf:RDF>
      <cc:Work
         rdf:about="">
        <dc:format>image/svg+xml</dc:format>
        <dc:type
           rdf:resource="http://purl.org/dc/dcmitype/StillImage" />
        <dc:title />
      </cc:Work>
    </rdf:RDF>
  </metadata>
  <defs
     id="defs6" />
  <image
     xlink:href="data:image/jpeg;base64,/9j/4AAQSkZJRgABAQAAAQABAAD/2wBDAAgGBgcGBQgHBwcJCQgKDBQNDAsLDBkSEw8UHRofHh0a HBwgJC4nICIsIxwcKDcpLDAxNDQ0Hyc5PTgyPC4zNDL/2wBDAQkJCQwLDBgNDRgyIRwhMjIyMjIy MjIyMjIyMjIyMjIyMjIyMjIyMjIyMjIyMjIyMjIyMjIyMjIyMjIyMjIyMjL/wAARCAB4Au4DASIA AhEBAxEB/8QAHwAAAQUBAQEBAQEAAAAAAAAAAAECAwQFBgcICQoL/8QAtRAAAgEDAwIEAwUFBAQA AAF9AQIDAAQRBRIhMUEGE1FhByJxFDKBkaEII0KxwRVS0fAkM2JyggkKFhcYGRolJicoKSo0NTY3 ODk6Q0RFRkdISUpTVFVWV1hZWmNkZWZnaGlqc3R1dnd4eXqDhIWGh4iJipKTlJWWl5iZmqKjpKWm p6ipqrKztLW2t7i5usLDxMXGx8jJytLT1NXW19jZ2uHi4+Tl5ufo6erx8vP09fb3+Pn6/8QAHwEA AwEBAQEBAQEBAQAAAAAAAAECAwQFBgcICQoL/8QAtREAAgECBAQDBAcFBAQAAQJ3AAECAxEEBSEx BhJBUQdhcRMiMoEIFEKRobHBCSMzUvAVYnLRChYkNOEl8RcYGRomJygpKjU2Nzg5OkNERUZHSElK U1RVVldYWVpjZGVmZ2hpanN0dXZ3eHl6goOEhYaHiImKkpOUlZaXmJmaoqOkpaanqKmqsrO0tba3 uLm6wsPExcbHyMnK0tPU1dbX2Nna4uPk5ebn6Onq8vP09fb3+Pn6/9oADAMBAAIRAxEAPwDz6kJ7 Dr/KgnsOv8qUDFACYx938vWlBzRQRzkdfT1oAKCcc0mRjOeKAD1PX+VABjPXr7dqPY9aWjqKACik HXHej73+7/OgA+906fzo+79P5UtFABRSfd/3f5UE49CaAAnHuaMf99evrQBj/GloAQHNLQRn6/zp M8Z6Y60AL0pMZ6jj0o68n8BS0AJ04P50tHXg0nTg/gfWgBaQ5PA/E0ZycD8TSgAUAJjHTp6UvvRS HjkfiKAFpCcD19qCce+elAHc9aADHv8AN60A+o5paCM+x9aACikB9eMdaPvfT+dAB97/AHfT1o6d elLRQAUUnT6etBPYdf5UABPYdf5UYx938vWlAxRQAA5ooI5yOvp60mRjOeKAFJxzSYz16+3agA9T 1/lS0AJ7HrS0dRSDrjvQAtJ97p0/nR97/d/nS0AJ936fypaKT7v+7/KgBaQnHuaCcehNAGP8aADH /fXr60A5paCM/X+dABR0pM8Z6Y60deT+AoAMZ6jj0o6cH86WjrwaACik6cH8D60ZycD8TQAHJ4H4 mjGOnT0pQAKKAD3opDxyPxFBOPfPSgAJwPX2ox7/ADetAHc9aWgBAfUc0tBGfY+tID68Y60ALSfe /wB309aPvfT+dLQAnTr0paKTp9PWgBaQnsOv8qCew6/ypQMUAJjH3fy9aUHNFBHOR19PWgBRTxxU YIxntUi56nr/ACqWNDwM9evt2qRfQ9aYpqQYIqGUiVMVZRA1VE6471YQ5/3f51lItFlYSenI/nVq EyQnK5AqCI8j5qvwlvY1zTZrEuwXSPgTJ/wIVqw26TrwRIvqOorJjjU9U49u1aNvDsYGN9p9+K5J uxtFFyOzaI5X5l/lWpbwiRP9r+dRW00gx5qb/wDaHWtW3iSTDRHB9KxjG7ujRuyGqqx25mlZUSFS XduAqjuTXj/ij4gX3iDUJLPw3ugtI2w950LfT0H61t/F/wAQzzXVv4RsW2tKqyXjA9uoH9a4+2tY 7S3WKFNqL+tdk+WjFX1bKw1B4iTe0UZieHoZHaW9mluZnOWZm6mlk8N6eykIskbeoateiuf6zVvf mPSWEoJW5UUbHUde8MvG9tMb+yj628nOB7en4V3Wk+JbPxJame3bEyj95C55T8PSuQaQLWRdxy6d dpq2m/LLGcyRjo6962hNVdJaPv8A5nBiMMqfvU/u/wAj0qcrnn5z+lUJWbdgYWp9N1Gy1fS4r2Ob aHHzJ3U9xSSSWqnAUmqjdOzRwuz1OKHy8dvWlopORwenY17Bxi0dBR0GaTryf/1UABySGxz6UoOR xRSEdx+I9aAFooHPI5pOvA6fzoAM7gV/h9aAex60tBGaACikB7HrSk4+tABnH1pDwSex/SgDH1pa ACik+7/u/wAqWgApDlsdsdM0defyFLQAgOaWkIzyOv8AOgHNAC0Z6j86QnnA/E0vSgBBxhfypaMZ GDSdDg/gfWgBaM4/pQTgf0pAO560AB67vzxS0Uh+XkdO4oAWijrSfe+n86AA/MMdu2RQDn6+lLSE Z9j60ALRSA59j6UE4OB1/lQAucHjk+9IPl47etKBiigAopORwenY0vQZoAOgpDkkNjn0o68n/wDV S0AAORxRSEdx+I9aUc8jmgApM7gV/h9aOvA6fzpaAEB7HrS0EZpAex60ALRnH1oJx9aQDH1oADwS ex/SlopPu/7v8qAFoopOvP5CgAOWx2x0zQDmlpCM8jr/ADoAWikBzQTzgfiaAFz1H50g4wv5UvSj GRg0AFFJ0OD+B9aUnA/pQAZx/SkPXd+eKAO560tABRSH5eR07il60AFIfmGO3bIo+99P50tACA5+ vpS0hGfY+tAOfY+lAC0ZweOT70hODgdf5UoGKAEHy8dvWlopORwenY0ALR0FHQZpOvJ//VQA4ZJD Y59KkXkcVGtPHXI/EetSxokGKlUVEvPTmng54HT+dZspEq8jH8PrU6eh61CtTLzWci0WYxVyHiqs ABPzHBrRhFumNxya5ajNYlqCRFI4OfrWtbTJx9+s6Ge1jPEJY+prUt748eXbxqfXGa4qhvA1LeRD 0V/yrZtdsf7yRXSNBuZ2GAAO5rHgvZ+8mB6LVXxfcTQ+BtZmJYD7JIoJPPK4/rRR1kkOeibPHbK5 fXNd1TW5yTJdTsVz2BNa0vypisnwyVGkw7UlCliPMMZCFupUN0J9q1JzzRi3J1nc93ARhDCJxIaD WdrGp/2bbqVUNI5woP8AOtNLdU8O6XqMmq2FxPflv9Fgf95FgZ+Yfh+dOOHnKHtEtDCWKpxqeyb1 KMpy1NU84PI9DQ33qWKKSeQRwxvJI3RUGSaaWhxyl71xvhqVdL8Stp8rlLW8GYz2Vv8APH413Ulp Bn/XVir8PL3VI43vJfsRjO5GBy4/Cp2+GCyHM2v3rn/dH+NdXNGSTk7M4p0pKT5Foc1QcAc9PT1o JwM0gHc9f5V6p54gyCN3P9KdRSdPp60ALRRSfe4HT+dACfeJ29O/+1Sg5FL2oI7jr6etABRQDmkJ x060ADdh37e1A4PPX+dAGP8AGlxmgAopPY9aXpz2oAOlNxjn+H09KXryfwFLQAUUn3f93+VLQAUh 5b5Tg9zQTk4B+ppQMCgBB09PaloIz9aQHNAC0h6Y656ClJx/hSAdzyaAAcHnk+tLR+FJ0OD+B9aA Foo/Kk+9/u/zoATHcfd9P606jvSHjkfiKAFoo7daQnsOv8qAA8kY4Yd/SgccHg0AYpcZ9j60AFFI D+BpScDNAAcAc9PT1poyCN3P9KUDuev8qWgAopOn09aWgApv3idvTv8A7VL97gdP50vagBAciloI 7jr6etAOaACkbsO/b2oJx060AY/xoABweev86WjGaT2PWgBaOlHTntSdeT+AoATGOf4fT0p1FJ93 /d/lQAtFFITk4B+poADy3ynB7mgdPT2pQMCgjP1oAKKQHNKTj/CgBD0x1z0FA4PPJ9aAO55NL+FA BRSdDg/gfWl/KgApuO4+76f1pfvf7v8AOl70AFFIeOR+Ipe3WgApDyRjhh39KCew6/yoAxQADjg8 Gloxn2PrSA/gaAFoOAOenp60E4GaQDuev8qAEGQRu5/pTqKTp9PWgBwqRetRDrTgd3T7v86TGiUf Nnb07/7VSKcgGoxUg55HX09azZSJVqdDVZTUynHTrWcikWVPT17VbhPPPWqSH/8AXVuBWkOFBNc8 0axZoRMo7ZrWs1km+7wvr2rPt4o4cGY7m/uitBLrGAeB2QVxzSNos3bRYosHIP8AtH+grO+JUkje AdUQZVBGv8xTrKdprpF3DOe/SsT4r6k39jW+h2P7y71OdYiO4Geg+pwKeGT50kFV+6eY6Dc67cWd ppjTTJpME/2pUPC7vb1zW/KcuafqAtPDcsljNcAJbt5Sk9Wx7Vhz+JtPUkq0kn+6uP50Vfa4ipzK Oi0PYo+wwlBQctXqybVtMGpW6qGCyIcqxqjpmiNp8pnmkVnAIUL2pr+K7cfctpD9SK0LW/W/sxOE KDJGDV/v6dPleiOeTw1Wpzxd5IvaVpVzrN+tparljyzHoi+pr1bSdAsdDt9lvGDKR88zfeaq/g7R k0rQ0lZSLm5AeQnqB2WtuQ0krI5m7srPUB61NIapTXUcTYJJPotZyaW5SPIRycnqO3pS0EZ9j60g OfY+le8eMLR+GfajvxSdeB09fWgAOOADlT3/AKUtH5YpOnBzjsaAFoooJxx3oAD3I+96etIuMZzn PegDH1oI5yPxHrQAtFAORxRQAHpzwPX0pOrc9un+NHX+gpSMigAopAex60tABzSHgcHA7/7NGew/ E0o4oAAMDFFJ93/d/lS0AFHv37e9BOKQDuetAAvPOee9LSEZ5HX+dAOelAC0dRz0opPvfT+dAAeS BnK9velo6jFJ0OD+B9aAFoopCew6/wAqAA8A469xjp70AADApRxSHjkdO4oAWiijpzQAccZOPekH Jyeo7elHXk//AKqUjPsfWgAopAc+x9KXvxQAfhn2pDjgA5U9/wClHXgdPX1pfyxQAUUnTg5x2NLQ AUHuR9709aCccd6QDH1oAFxjOc570tIRzkfiPWlByOKACg9OeB6+lFJ1/oKADq3Pbp/jS0EZFID2 PWgBaOaKTPYfiaAA8Dg4Hf8A2aUDAxQOKT7v+7/KgBaKKCcUAHv37e9IvPOee9AHc9aCM8jr/OgB aKQHPSloAOo56Uh5IGcr296PvfT+dL1GKACik6HB/A+tLQAUh4Bx17jHT3oJ7Dr/ACpRxQAgAAwK WkPHI6dxS0AFHHGTj3o6c0nXk/8A6qAAcnJ6jt6UtBGfY+tIDn2PpQAtH4Z9qO/FJ14HT19aAA44 Gcqe/wDSpBTPyxQpx16djSYyYGpAaiBp4OPrUMaJQe4+96etSR+xznvUK8c96kU4OR+XrWbRSL0M YPLdKuC6EQ2xgZ9azFlLAYPFSK1Yyjfc0TNKKcnknn19KtLP82AefWslHNXLchjlugrnnA0TN6yu FtFM0nUjCj0rmC7a58W9JtXO+OyQzbvcLv8A6Ct523hfkUoBzisf4dqLrx3r98RlYk8pD6fMP6U6 MeW8vIbd2kYnxE09rzUL94lLSQzs+B3HeuU0nwvNfQrcTyeTCwyoAyzCvRNeP/E/v/8ArqawDbqC wjkliBOcRvtGawhipwi6cXbU9yWCozlCtNX0Whgap4dtbVUit7iSS6cgLEQOnqfQV0GhaaiXen2A G5WlUP75PNJFbxQFjGmGY5Zj1atrwnF5/iyyHZdzn8FJodadS0G7mVShTp804Rtc9YcgDHpxVZzU rtVK6n8qJn79quTscMUU7662fu0Pzdz6VmHk809iWYknJNMrhnJydzZHmtBGfr2NFJ94f7P86+nP DEB3DHT1p1BGfb0NID+dAC0e3aikJxx3oAM7Tjr6Z/rQBj60AY989c96On09aAFooo6DJ6UAIePm /MetH3ue3YUdTk/gKCO46+nrQAtFAOaKAAjP+NJk/d6H1/wozngH6mjAxjoP5UAKBiikGeh60tAB Tc7PcenpSk4/woHHPegAx3PWlpPu/T+VLQAUhHfv/OlpPvfT+dABnd7D0paCM/WkBzQAtHUYIopC ecDr/KgAyQcd/WgDHFGBjHajocH8DQAtFFBOBQAh+Xnt6CgcnNA65PX+VGMcj8RQAtFFFAARn69j TQdwx09aX7w/2f50pGfb0NABRSA/nS0AHt2pM7Tjr6Z/rQTjjvQBj3z1z3oAAMfWlpOn09aWgApD x835j1pegyelJ1OT+AoAPvc9uwpaQjuOvp60oOaACgjP+NFJnPAP1NABk/d6H1/wpQMUmBjHQfyo Geh60ALRRSE4/wAKAEzs9x6elLjuetA4570fd+n8qAFooooAQjv3/nRnd7D0o+99P50pGfrQAUUg OaWgA6jBFJkg47+tBPOB1/lRgYx2oAAMcUtJ0OD+BpaACkPy89vQUpOBSDrk9f5UAA5OaWkxjkfi KWgAoIz9exopPvD/AGf50AIDuGOnrTqCM+3oaaXVfvEA+9ADZbiGDHmyomf7xxTo5ElXKOroe4Oa 6X4R+FNF8YeKdZXXIvtH2WNTDCWwMEkZ9+1WPiR8LrjwTI+u+Hlkm0ckefbnLNB7+6+/agDlg204 6+mf61IvHXrWVPqccenC4iIcycKD3PvXT33w18d6V4cj110guEMYlltIzmWJevIx/LNTYdyiDTwa pWN4l7arMnGeoPY1aBwMnpUNFIlBxz+Y9alVt3PbsKrg5OSPoKkB7jr6etZtFJlpWqcTELgGqSvk VIGrNxLTLkl4y27F3O1RuNXfhFaumgX9/Ly11c/KfZev61zOtXX2fR7ps4Owrn3PArvfAVv9g8C6 cpGN8Zm/765rOfu035mlL3pnM60+/Wr9v+mzfzrK9av37btQumz1laqFeTu2fT/Yj6BXQ+BIw3iC ST/nnASPxOKqt4X1oWP2w2LiHbu5YbseuOtaPgGIi8vpSCNqBPxzV0KkJv3Xexx4l+5od27VkahL vl2dlrRd8Ak1iSNvdmPc1pVlpY4YoYaaacaYa52Wea/e/wB3+dLSdOR07ilr6g8MKDz9exooJx7n 0oAQkjt83pQBj/GjGe53etAOfY+lAC0UUcfQUAJgge3rR1OT+Ao69enpR0+nY0ALRRRQAYycjr6e tIeuBx6mg+g/E0Edx+I9aAFxiigHIooAOtJyByOe2O9KTgdPoKTGep5/lQAAdz1paQHsetLQAUmM dPu/ypaTOfXH86AD73b5f50tJ93/AHf5UtABQRn60UE9h1/lQAhJ6dG9+1KBgcUmPTr796Ac0ALR 14PSijp1oAToMnkevrQB3PX+VGM9fy9KM4OD+B9aAFo96KKADHPyj8KT73+7/OjOenT1o6cjp3FA C0UUUAB5+vY0hJHb5vSlJx7n0pMZ7nd60AAGP8aWkBz7H0paACkwQPb1pePoKTr16elAB1OT+Apa Tp9OxpaACjGTkdfT1opD6D8TQAHrgceppcYpCO4/EetKDkUAFHWignA6fQUAJyByOe2O9AHc9aMZ 6nn+VAPY9aAFooooATGOn3f5Ufe7fL/OjOfXH86Pu/7v8qAFooooACM/WkJPTo3v2pSew6/ypMen X370AKBgcUUgOaWgA68HpSdBk8j19aXp1pMZ6/l6UAAHc9f5UtJnBwfwPrS0AHvRjn5R+FFJnPTp 60AH3v8Ad/nS0nTkdO4paAA8Cuh+F/w8074h/wBqX2r30qi3lEMdvC2GXjO4+3b8DXOPIkSF3YKo 6k1F4X8cS+CPE/8AaulSCe3n+W7tSCokX6+voaAPQr34aeI/hfrcfifwpK2q2sAPn27DEmz+JcD7 wx3HPtXsPhfxTo/jzw6LyzKyRSL5dzbSctG2OUYf5zS+E/G2h+NNPFzpV2ryBcy2znEsXsy/16Vz XiPwdc6LrR8U+DWjttTZibuxdtsN6vceit70AePfFX4YXXg+8fU9LR5dCll37Rz9mb+6fb0NfQnh /X4de0Cw1GMq0d1ArkA5AJHzL+B4qz5/26FkmiVo2GGRhkGs7TNKstGgWy06Bbe1V2dYk+6pY5OP bJoA+dPEGkQ+FviHq+jQZS1L+dAmPuqw3AfgDikBJOT+ArsfjpYfZvFWgaqqhVni8mRv7zA/4Vxi nBAJ47GpkholBqRQT0pi4FShqhooMN97HP8AOlD84HHqakeTfHtA5HGarnKn37j1qLDuZfiUtJZQ WsY+aeVUAr2QIlnpkdvENscUaoo9BivIra3OqeOdHtFOUjkEzj2X5j+gr1m+cJD7dTXHjJWSidmF je7PP7g7ppn9XJrsPB/hTlNT1GP/AGoIWH/jzCqng3RV1O7e8uVDQQNwp/iauz1vWIdGsjI5HmEf ItfJ4/Fzcvq9Hd7/AOR9BXltCJD4i1u30mwkV2BlkUqF+tcx4N+azvbsjBuJ8/lXI6tqU+pXLTzM Tk8A12fhSMxeHoM/xlm/OvRy7BrDQ83ucddcqUTXuXxC/wBMVmGr14cQj3NUDXXUepzCGmE0400+ lZDPN6TpyOncUtITjgda+pPDDP4k0AY+tGNvI/GloAKQjPsfWlo6c9qAEB654x1o6nP5CjG7k8Ht 7UA8+9AC0fWiigBOnHUdjQfQfiaDzkdu9H3fp2oAUDFFFFACEc5H4j1oyMZ6+lBOO30FG3nPVu/v QAAHqetLQDkUUABGR/WkB7Hg0tJjd16dqADr9P50tID2PWloAKT7v+7/ACpaQnsOv8qAFJxwOv8A KkAxRjb0+7/KloAKQjuOv86WgnAoAQEYzQOuT/8Aqoxk7j96gHNAC0dRg0UUAIOuD17H1oPPA6ev rR97j+H+dHTg/gaAFooooATpyOncUZ/EmgnHA60Y28j8aAADH1paKKAEIz7H1oB654x1penPakxu 5PB7e1AB1OfyFLSA8+9LQAfWk6cdR2NLSHnI7d6AA+g/E0oGKT7v07UtABSEc5H4j1paQnHb6CgA yMZ6+lAB6nrRt5z1bv70oORQAUEZH9aKKAEB7Hg0dfp/OjG7r07UA9j1oAWiiigBPu/7v8qUnHA6 /wAqQnsOv8qMben3f5UAAGKWiigBCO46/wA6ARjNKTgUmMncfvUAA65P/wCqlpAc0tAB1GDSDrg9 ex9aWk+9x/D/ADoADzwOnr60tJ04P4GloAKTpyOncUtITjgdaAMzWSCtsshIgaUeaR/dr6bHw38B 6zocK2+j2b2skQ8q4g4YqR94MK+c5YEliMbruRvvA1Y0LXvFHhCQtoGqN9nJ3G1m+ZCfpQB6Zf8A wIu9HvDqfgzxBLZ3aNuijnyMD03jr+IrstBuvEd1pEcXia3ih1KNyjeUwIcDo3FcNov7QUkIWDxP oksXG1rm1OQT67T/AEJr0zRNT0vxKi3+j38N5AeTsPzL/vKeV/GgDXht/LthxyajityZc1qhBsAo EYHagDyb4/aXFP8AD+G+Z9stldIUHru+U145byeZCjkfeUEiu5+P3iq1v9SsPC9vOMWz+bdsDwpP RT9BzXCRSxuuYnVl/wBk5pMC0mRgduxp+SDjp6molkByPzpk93b2iZmmVF7ZPP5Umh3LanFZuq61 BYLtyHn7IP61i6h4kkcGOzBRf756/hWLFBNdM7KC20Fnc9APc0uXuO56B8MUl1LxNealOMmKHhsc Ak4x+Vei63LttJwO0R/lXNfCmz8jwzNckf8AHxOef93itnXpf9BuG9Tt/WvHxs71Gerg4aRXc2/A ZT+wWUffWU7v6Vi+PrW7+1rcFHa3OPmAyBWb4f1+TQrgsVMltJ/rEHX6j3r0uCW31bTUlClre4TI Drjg18lXc8JinXavFnsVounUv0Z4ZKeK9R0yH7NpdpD/AHIlWuE1fTFt/EP2KL7rzBF/E4r0QDao X0GK+lpSUoKS6nFiH7xVvTwgqkatXx+dR7VUJqJvUxENMNKTTc1mwPOScdOtAGKKK+qPDFpCMcjp 3FFFAC54z2pOpyfwFFFAC0EZ+vY0UUAID+dB54H4miigBegooooATofb1oJx/QUUUAAHr1paKKAA juOv86AcjNFFACfe7cfzpaKKADqKT2PWiigAJ5wOv8qAMCiigBaT7v8Au/yoooAUnHWkA5yev8qK KAFoIz060UUAA5pPvfT+dFFAC0e3aiigBOnB/OgnHTrRRQAAYpaKKAEIxyOncUueM9qKKAE6nJ/A UtFFAARn69jSA/nRRQAHngfiaXoKKKACk6H29aKKAAnH9BQB69aKKAFoI7jr/OiigAByM0n3u3H8 6KKAFo6iiigBPY9aCecDr/KiigAAwKWiigBPu/7v8qUnHWiigBAOcnr/ACpaKKAAjPTrQOaKKAE+ 99P50tFFAB7dqTpwfzoooACcdOtAGKKKAFpDxyOncUUUAIyq6EOAVx3qvZf2loV+NR0C+lsbgdlb AYehoooA9L0j9oHUbOJIfEOgPK6/euLQ43f8BPH60mvfH2/1GzktfDeizW8si7ftNyRmP6AcfrRR QB4xqGl6lNcyXU7m5mlYvI+7LFj1JzWYRNbtg742HrkUUUASfb7vbt+0Pj0zTI4Z7p8IjyH6Zooo A17Pw+5KvdsFX+4vX8a0NV8qy0eSOFVQN8oA7+tFFIZ674dshpXhaxtgu1o4Az/7xHP61ka/Ji1j j/vvzRRXztZtyuz6DCJe0iiz4b8LtqjJdXalbJTkDoZP/rV3Wo38Gk2DSuVUKuEWiivlK85YjF+z nsnY7K0nOrZnl2mTHVPF0Uz8gEsPwHWu8oor62EVGKSOGs7yM+9ObjHoBVUmiisJbsgaTTaKKgD/ 2Q== "
     x="0"
     y="0"
     width="750"
     height="120"
     id="image10" />
  <switch
     id="switch6">
    <text
       systemLanguage="bg"
       x="38.006756"
       y="44.831081"
       id="text12"
       xml:space="preserve"
       style="font-size:26px;font-style:normal;font-variant:normal;font-weight:normal;font-stretch:normal;line-height:125%;letter-spacing:0px;word-spacing:0px;fill:#ffffff;fill-opacity:1;stroke:none;font-family:Cantarell;-inkscape-font-specification:Cantarell"><tspan
         x="38.006756"
         y="44.831081"
         id="tspan14">Искате да подобрите Fedora? Елате и ни помогнете.</tspan><tspan
         x="38.006756"
         y="72.331085"
         id="tspan16" /><tspan
         x="38.006756"
         y="99.831085"
         id="tspan18"
         style="fill:#FDB255">Join.fedoraproject.org</tspan></text>
    <text
       systemLanguage="de"
       x="32.094593"
       y="42.297298"
       id="text30"
       xml:space="preserve"
       style="font-size:22px;font-style:normal;font-variant:normal;font-weight:normal;font-stretch:normal;line-height:125%;letter-spacing:0px;word-spacing:0px;fill:#ffffff;fill-opacity:1;stroke:none;font-family:Comfortaa;-inkscape-font-specification:Comfortaa"
       sodipodi:linespacing="125%"><tspan
         x="32.094593"
         y="42.297298"
         id="tspan32"
         style="font-size:20px">Möchten Sie Fedora besser machen? Wir können Ihnen helfen,</tspan><tspan
         x="32.094593"
         y="97.297302"
         id="tspan36"
         style="font-size:20px;fill:#fdb255"><tspan
   style="fill:#ffffff;fill-opacity:0.94117647"
   id="tspan7262">uns zu helfen.     </tspan>   Join.fedoraproject.org</tspan></text>
    <text
       systemLanguage="es"
       x="38.006756"
       y="44.831081"
       id="text2987"
       xml:space="preserve"
       style="font-size:22px;font-style:normal;font-variant:normal;font-weight:normal;font-stretch:normal;line-height:125%;letter-spacing:0px;word-spacing:0px;fill:#ffffff;fill-opacity:1;stroke:none;font-family:Comfortaa;-inkscape-font-specification:Comfortaa"
       sodipodi:linespacing="125%"><tspan
         x="38.006756"
         y="44.831081"
         id="tspan2989"
         dy="-4.8000002 4.8000002">¿Quiere mejorar Fedora? Lo podemos ayudar a ayudarnos.</tspan><tspan
         x="38.006756"
         y="72.331085"
         id="tspan2993" /><tspan
         x="38.006756"
         y="99.831085"
         id="tspan2997"
         style="fill:#fdb255">Join.fedoraproject.org</tspan></text>
    <text
       systemLanguage="fr"
       x="38.006756"
       y="44.831081"
       id="text12"
       xml:space="preserve"
       style="font-size:22px;font-style:normal;font-variant:normal;font-weight:normal;font-stretch:normal;line-height:125%;letter-spacing:0px;word-spacing:0px;fill:#ffffff;fill-opacity:1;stroke:none;font-family:Comfortaa;-inkscape-font-specification:Comfortaa"><tspan
         x="38.006756"
         y="44.831081"
         id="tspan14">Vous voulez améliorer Fedora ? Nous pouvons vous aider.</tspan><tspan
         x="38.006756"
         y="72.331085"
         id="tspan16" /><tspan
         x="38.006756"
         y="99.831085"
         id="tspan18"
         style="fill:#FDB255">Join.fedoraproject.org</tspan></text>
    <text
       systemLanguage="hr"
       x="38.006756"
       y="44.831081"
       id="text2987"
       xml:space="preserve"
       style="font-size:22px;font-style:normal;font-variant:normal;font-weight:normal;font-stretch:normal;line-height:125%;letter-spacing:0px;word-spacing:0px;fill:#ffffff;fill-opacity:1;stroke:none;font-family:Comfortaa;-inkscape-font-specification:Comfortaa"
       sodipodi:linespacing="125%"><tspan
         x="14.006756"
         y="44.831081"
         id="tspan2989">Želite poboljšati Fedora? Možemo Vam pomoći da nam pomognete.</tspan><tspan
         x="14.006756"
         y="72.331085"
         id="tspan2993" /><tspan
         x="14.006756"
         y="99.831085"
         id="tspan2997"
         style="fill:#fdb255">Join.fedoraproject.org</tspan></text>
    <text
       systemLanguage="ja"
       x="38.006756"
       y="44.831081"
       id="text12"
       xml:space="preserve"
       style="font-size:22px;font-style:normal;font-variant:normal;font-weight:normal;font-stretch:normal;line-height:125%;letter-spacing:0px;word-spacing:0px;fill:#ffffff;fill-opacity:1;stroke:none;font-family:Comfortaa;-inkscape-font-specification:Comfortaa"><tspan
         x="38.006756"
         y="44.831081"
         id="tspan14">Fedoraをさらにより良いものにしたいですか？</tspan><tspan
         x="38.006756"
         y="72.331085"
         id="tspan16" /><tspan
         x="38.006756"
         y="99.831085"
         id="tspan18"
         style="fill:#FDB255">Join.fedoraproject.org</tspan></text>
    <text
       systemLanguage="uk"
       x="38.006756"
       y="44.831081"
       id="text12"
       xml:space="preserve"
       style="font-size:26px;font-style:normal;font-variant:normal;font-weight:normal;font-stretch:normal;line-height:125%;letter-spacing:0px;word-spacing:0px;fill:#FDB255;fill-opacity:1;stroke:none;font-family:Cantarell;-inkscape-font-specification:Cantarell"><tspan
       x="30.254778"
       y="35.605095"
         id="tspan4074">Хочете допомогти з покращенням <tspan style="font-size:26px;font-style:normal;font-variant:normal;font-weight:normal;font-stretch:normal;line-height:125%;letter-spacing:0px;word-spacing:0px;fill:#ffffff;fill-opacity:1;stroke:none;font-family:Comfortaa;-inkscape-font-specification:Comfortaa">Fedora?</tspan></tspan><tspan
         x="38.006756"
         y="72.331085"
         id="tspan16" /><tspan
       x="30.254778"
       y="66.855095"
       id="tspan4084">Ми допоможемо вам допомогти нам.</tspan><tspan
       x="30.254778"
       y="98.105095"
         id="tspan4086"
         style="font-size:26px;font-style:normal;font-variant:normal;font-weight:normal;font-stretch:normal;line-height:125%;letter-spacing:0px;word-spacing:0px;fill:#ffffff;fill-opacity:1;stroke:none;font-family:Comfortaa;-inkscape-font-specification:Comfortaa">Join.fedoraproject.org</tspan></text>
    <text
       systemLanguage="zh_CN"
     x="38.006756"
     y="44.831081"
     id="text2987"
     xml:space="preserve"
     style="font-size:22px;font-style:normal;font-variant:normal;font-weight:normal;font-stretch:normal;line-height:125%;letter-spacing:0px;word-spacing:0px;fill:#ffffff;fill-opacity:1;stroke:none;font-family:Comfortaa;-inkscape-font-specification:Comfortaa"><tspan
       x="38.006756"
       y="44.831081"
       id="tspan2989">想要让 Fedora 变得更好吗？我们可以指导您来帮助我们。</tspan><tspan
       x="38.006756"
       y="72.331085"
       id="tspan2993" /><tspan
       x="38.006756"
       y="99.831085"
       id="tspan2997"
       style="fill:#FDB255">Join.fedoraproject.org</tspan></text>
    <text
       systemLanguage="zh_TW"
       x="38.006756"
       y="44.831081"
       id="text20"
       xml:space="preserve"
       style="font-size:22px;font-style:normal;font-variant:normal;font-weight:normal;font-stretch:normal;line-height:125%;letter-spacing:0px;word-spacing:0px;fill:#ffffff;fill-opacity:1;stroke:none;font-family:Comfortaa;-inkscape-font-specification:Comfortaa"><tspan
         x="38.006756"
         y="44.831081"
         id="tspan22"
         style="-inkscape-font-specification:Comfortaa;font-family:Comfortaa;font-weight:normal;font-style:normal;font-stretch:normal;font-variant:normal"><tspan
   style="-inkscape-font-specification:cwTeX Q Yuan Medium;font-family:cwTeX Q Yuan;font-weight:500;font-style:normal;font-stretch:normal;font-variant:normal"
   id="tspan2996">想要讓</tspan> Fedora <tspan
   style="-inkscape-font-specification:cwTeX Q Yuan Medium;font-family:cwTeX Q Yuan;font-weight:500;font-style:normal;font-stretch:normal;font-variant:normal"
   id="tspan2998">變更好？我們可以幫助您讓您幫助我們</tspan>。</tspan><tspan
         x="38.006756"
         y="72.331085"
         id="tspan26"
         style="-inkscape-font-specification:Comfortaa;font-family:Comfortaa;font-weight:normal;font-style:normal;font-stretch:normal;font-variant:normal" /><tspan
         x="38.006756"
         y="99.831085"
         id="tspan28"
         style="fill:#FDB255;-inkscape-font-specification:Comfortaa;font-family:Comfortaa;font-weight:normal;font-style:normal;font-stretch:normal;font-variant:normal">Join.fedoraproject.org</tspan></text>
    <text
       x="38.006756"
       y="44.831081"
       id="text30"
       xml:space="preserve"
       style="font-size:22px;font-style:normal;font-variant:normal;font-weight:normal;font-stretch:normal;line-height:125%;letter-spacing:0px;word-spacing:0px;fill:#ffffff;fill-opacity:1;stroke:none;font-family:Comfortaa;-inkscape-font-specification:Comfortaa"><tspan
         x="38.006756"
         y="44.831081"
         id="tspan32">Want to make Fedora better? We can help you help us.</tspan><tspan
         x="38.006756"
         y="72.331085"
         id="tspan34" /><tspan
         x="38.006756"
         y="99.831085"
         id="tspan36"
         style="fill:#FDB255">Join.fedoraproject.org</tspan></text>
  </switch>
</svg>
